<?xml version="1.0" encoding="UTF-8" standalone="no"?>
<!-- Created with Inkscape (http://www.inkscape.org/) -->

<svg
   xmlns:dc="http://purl.org/dc/elements/1.1/"
   xmlns:cc="http://creativecommons.org/ns#"
   xmlns:rdf="http://www.w3.org/1999/02/22-rdf-syntax-ns#"
   xmlns:svg="http://www.w3.org/2000/svg"
   xmlns="http://www.w3.org/2000/svg"
   xmlns:xlink="http://www.w3.org/1999/xlink"
   xmlns:sodipodi="http://sodipodi.sourceforge.net/DTD/sodipodi-0.dtd"
   xmlns:inkscape="http://www.inkscape.org/namespaces/inkscape"
   id="svg2"
   version="1.1"
   inkscape:version="0.92.2 5c3e80d, 2017-08-06"
   width="2481"
   height="3503"
   sodipodi:docname="E24P01.svg">
  <metadata
     id="metadata8">
    <rdf:RDF>
      <cc:Work
         rdf:about="">
        <dc:format>image/svg+xml</dc:format>
        <dc:type
           rdf:resource="http://purl.org/dc/dcmitype/StillImage" />
        <dc:title />
      </cc:Work>
    </rdf:RDF>
  </metadata>
  <defs
     id="defs6">
    <filter
       style="color-interpolation-filters:sRGB"
       id="filter4375-4-1-1-1-9"
       inkscape:label="deevad outline effect">
      <feFlood
         id="feFlood4377-7-9-0-8-1"
         flood-opacity="1"
         flood-color="rgb(0,0,0)"
         result="flood" />
      <feComposite
         id="feComposite4379-3-8-8-2-77"
         in2="SourceGraphic"
         in="flood"
         operator="in"
         result="composite1" />
      <feMorphology
         id="feMorphology4393-1-0-49-8-9"
         operator="dilate"
         radius="4"
         result="result3" />
      <feComposite
         id="feComposite4385-9-5-7-0-8"
         in2="result3"
         in="SourceGraphic"
         operator="over"
         result="composite2" />
    </filter>
  </defs>
  <sodipodi:namedview
     pagecolor="#ffffff"
     bordercolor="#666666"
     borderopacity="1"
     objecttolerance="10"
     gridtolerance="10"
     guidetolerance="10"
     inkscape:pageopacity="0"
     inkscape:pageshadow="2"
     inkscape:window-width="1280"
     inkscape:window-height="971"
     id="namedview4"
     showgrid="false"
     inkscape:zoom="0.45"
     inkscape:cx="1222.4358"
     inkscape:cy="670.63603"
     inkscape:window-x="0"
     inkscape:window-y="0"
     inkscape:window-maximized="1"
     inkscape:current-layer="layer3"
     inkscape:snap-global="false" />
  <g
     inkscape:groupmode="layer"
     id="layer2"
     inkscape:label="artwork"
     sodipodi:insensitive="true">
    <image
       sodipodi:absref="/run/media/zveryok/Media/Work/Not Done/Translation/ep24/uk/../gfx_Pepper-and-Carrot_by-David-Revoy_E24P01.png"
       xlink:href="../gfx_Pepper-and-Carrot_by-David-Revoy_E24P01.png"
       y="0"
       x="0"
       id="image10"
       height="3503"
       width="2481" />
  </g>
  <g
     inkscape:groupmode="layer"
     id="layer3"
     inkscape:label="speechbubbles">
    <path
       style="fill:#ffffff;fill-rule:evenodd;stroke:none;stroke-width:1.12500298px;stroke-linecap:butt;stroke-linejoin:miter;stroke-opacity:1"
       d="m 497.08962,471.15697 c 42.39005,9.55626 80.70771,15.49763 67.68047,-24.13849 75.03314,53.81196 64.26965,16.95806 76.14053,4.02305 44.6099,38.01257 82.99315,32.59552 116.32579,-8.04611 18.84342,58.62362 58.27513,30.22008 93.06057,21.45642 -0.0857,16.48589 -9.58263,35.38987 93.06071,25.47957 -29.34841,14.88961 -40.29548,28.40651 25.38018,36.20783 -45.62129,11.97172 -70.67571,24.71054 -21.15021,40.23098 -26.31004,22.60956 -8.71286,36.04635 27.49523,45.59499 -84.77821,1.32231 -95.78755,3.51831 -82.18638,15.2368 -72.17954,-24.09316 -50.85229,-4.2044 -44.71449,14.26583 -33.59537,-10.59543 -58.42673,-35.63875 -118.44073,-2.68199 -17.84887,-10.93783 -34.30161,-24.75241 -74.02557,9.38718 -2.80223,-29.77909 -31.84535,-28.65884 -74.02553,-12.06924 -11.12525,-27.92728 -52.90093,-13.74768 -97.29068,4.02314 36.23216,-27.2576 38.85772,-50.02914 -31.72521,-63.02847 68.40076,-15.59333 55.94557,-28.17103 29.6102,-40.23089 26.01852,-11.34054 42.98287,-23.69407 -25.38016,-45.59507 39.97019,3.40479 82.52913,7.79449 40.18528,-20.11553 z"
       id="path4582"
       inkscape:connector-curvature="0"
       sodipodi:nodetypes="ccccccccccccccccccc" />
    <path
       style="color:#000000;display:inline;overflow:visible;visibility:visible;fill:#ffffff;fill-opacity:1;fill-rule:nonzero;stroke:none;stroke-width:0.99999994px;marker:none;enable-background:accumulate"
       d="m 1129.3293,682.39653 c -32.2265,-17.97546 -75.6905,-29.21797 -94.8601,-55.01638 l -18.7309,38.20697 c -21.19639,-1.31166 -26.23372,-14.07539 -36.75805,-22.95055 L 960.4558,668.36062 C 911.10736,664.693 886.97859,648.83523 853.21459,635.99591 l -19.93547,22.60875 c 41.44339,8.00317 86.22663,23.6167 121.36515,31.70826 l 22.07602,-17.34663 c 14.0695,3.48337 27.30831,7.5971 36.83671,14.52656 l 23.5694,-31.97386 z"
       id="path4032"
       inkscape:connector-curvature="0"
       sodipodi:nodetypes="cccccccccccc" />
    <path
       style="color:#000000;display:inline;overflow:visible;visibility:visible;fill:#ffffff;fill-opacity:1;fill-rule:nonzero;stroke:none;stroke-width:0.99999994px;marker:none;enable-background:accumulate"
       d="m 1375.5724,1883.7993 c 6.6851,-9.6035 35.5763,-37.7572 31.3268,-2.86 46.4175,-40.2666 78.7953,-19.5262 111.971,-2.2535 11.4973,-12.4731 16.0323,-33.3022 45.1957,-24.5731 -1.9873,-14.0664 9.629,-22.0812 33.3836,-24.6967 -29.027,-12.0387 -33.2191,-21.179 24.6468,-23.0767 -42.759,-6.3379 -82.4984,-13.2357 -27.1003,-37.773 -15.6687,-2.7585 -57.3593,18.2946 -27.5245,-55.0444 -31.1129,20.7342 -62.2582,30.3971 -90.297,-24.8989 -14.441,18.5866 -33.3418,29.9721 -60.9951,-1.4146 -10.1201,18.985 -49.1487,15.6954 -62.7522,9.8432 25.1172,25.8757 21.8709,39.5499 -17.5185,36.7247 58.9158,48.3718 6.4035,35.5263 -5.8106,44.3362 49.1464,20.3406 23.3399,34.5624 11.3904,50.4926 58.9887,8.1069 35.1654,33.0527 34.0839,55.1942 z"
       id="path3549-3"
       inkscape:connector-curvature="0"
       sodipodi:nodetypes="ccccccccccccccc" />
    <path
       style="color:#000000;display:inline;overflow:visible;visibility:visible;fill:#ffffff;fill-opacity:1;fill-rule:nonzero;stroke:none;stroke-width:0.99999988px;marker:none;enable-background:accumulate"
       d="m 1335.6889,1948.0036 c 5.1172,-75.8195 85.041,-136.0769 263.8508,-119.3503 95.7804,8.9596 216.8537,11.5576 210.468,122.6433 -6.3854,111.0853 -174.9845,109.9946 -207.223,112.1526 -32.2388,2.1584 -208.0182,-2.3501 -237.6367,-40.5729 -18.5412,-23.9266 -29.8367,-51.3744 -29.4591,-74.8727 z"
       id="path4546-6"
       inkscape:connector-curvature="0"
       sodipodi:nodetypes="cssssc" />
    <path
       style="color:#000000;display:inline;overflow:visible;visibility:visible;fill:#ffffff;fill-opacity:1;fill-rule:nonzero;stroke:none;stroke-width:1px;marker:none;enable-background:accumulate"
       d="m 1725.1844,1861.3342 c 6.612,11.2759 86.9477,-29.2003 85.8796,-32.4046 0,0 27.5174,7.7754 31.5141,6.9248 1.9994,-6.4636 4.2729,-17.2204 4.2729,-17.2204 l 43.1705,1.271 -34.6999,8.0734 0.1804,21.2585 -36.6531,-7.0896 c -19.044,13.242 -51.208,25.1719 -50.7716,40.3619 z"
       id="path4448"
       inkscape:connector-curvature="0"
       sodipodi:nodetypes="cccccccccc" />
    <path
       style="color:#000000;display:inline;overflow:visible;visibility:visible;fill:#ffffff;fill-opacity:1;fill-rule:nonzero;stroke:none;stroke-width:1.12716746px;marker:none;enable-background:accumulate"
       d="m 31.765771,3159.7264 c 52.062875,13.713 47.678857,63.8182 33.50648,81.1153 58.256819,-61.7896 88.758149,-38.3518 59.098899,23.7735 101.31378,-85.2762 136.55295,-24.0894 119.52407,9.0784 42.79834,-68.7411 120.64853,-73.434 160.95199,0.8726 25.42159,-89.7284 60.91018,-56.2137 109.48223,-34.0097 -36.89045,-33.7312 -58.17069,-67.1033 40.92666,-110.2661 -53.11297,12.4993 -105.47316,-31.2806 -14.1655,-66.1681 -90.52909,-1.6769 -96.89449,-50.4586 -0.76223,-73.2947 -93.37256,0.1666 -91.17403,-32.7051 -48.56115,-74.7805 -65.54184,11.7454 -81.86586,-26.9836 -20.66485,-88.9916 -102.56729,55.7866 -107.6347,21.3395 -100.7878,-50.5163 -57.86742,78.6792 -53.09242,42.0211 -64.67509,-32.5272 -12.20458,54.8059 -43.60036,95.7595 -108.44081,31.779 9.99016,35.6187 -4.44036,75.9023 -93.01412,35.2596 47.39902,42.8284 81.43414,116.2898 -56.657509,115.3339 64.430959,28.3004 91.428299,69.6404 3.051968,78.4745 35.339631,9.3082 44.600011,35.3587 42.49786,56.5628 -15.917219,6.8191 -37.061204,13.4202 -64.36308,19.8302 51.478904,19.2598 84.145281,44.018 3.051982,78.4744 z"
       id="path3549-3-7"
       inkscape:connector-curvature="0"
       sodipodi:nodetypes="cccccccccccccccccccc" />
    <path
       style="fill:#ffffff;stroke:none;stroke-width:1"
       d="m 1312.0471,2636.6402 c 24.8572,-23.3618 23.0898,-34.098 20.1693,-46.0928 -2.9204,-11.9949 -6.7783,-22.4564 -2.996,-29.6912 3.7822,-7.2345 11.9314,-13.7504 18.5182,-17.7105 6.5867,-3.9602 0.6895,-11.8462 0.1992,-20.4782 -0.4905,-8.632 11.6694,-54.4912 11.6694,-54.4912 0,0 15.4128,29.8223 17.3984,40.7257 1.9857,10.9032 2.7616,14.8752 2.4762,19.5352 -0.2855,4.6599 -2.4809,16.1126 -8.3834,22.0982 -5.9026,5.9855 -13.8607,8.5198 -19.1677,11.9592 -5.307,3.4394 -4.2207,13.2301 -3.7625,22.963 0.4583,9.7331 -0.6146,16.9839 -10.2491,30.0137 -8.2583,11.169 -25.872,21.1689 -25.872,21.1689 z"
       id="path3023-2"
       inkscape:connector-curvature="0"
       sodipodi:nodetypes="csssscssssssc" />
    <path
       style="color:#000000;display:inline;overflow:visible;visibility:visible;fill:#ffffff;fill-opacity:1;fill-rule:nonzero;stroke:none;stroke-width:0.99999994px;marker:none;enable-background:accumulate"
       d="m 1316.0029,3034.7179 c 5.2109,-36.069 14.5234,-83.1655 -40.179,-91.5576 2.7742,1.4246 74.681,-16.1526 71.113,92.3401 -3.568,108.4926 -13.868,120.9339 -13.868,120.9339 z"
       id="path4064"
       inkscape:connector-curvature="0"
       sodipodi:nodetypes="ccscc" />
    <path
       style="color:#000000;display:inline;overflow:visible;visibility:visible;fill:#ffffff;fill-opacity:1;fill-rule:nonzero;stroke:none;stroke-width:1.08905542px;marker:none;enable-background:accumulate"
       d="m 1032.9889,3295.7847 c -1.4061,-61.9807 44.606,-99.5237 53.4282,-104.6787 79.6243,-46.525 327.6518,-29.3302 371.1862,2.7546 36.5561,26.1698 44.9923,44.0753 40.7742,67.4904 -4.2181,23.4149 -26.7143,85.3957 -78.7366,103.3013 -52.022,17.9055 -172.9387,26.1697 -236.2093,12.3961 -63.2703,-13.7735 -156.0669,-27.5469 -150.4427,-81.2637 z"
       id="path3517"
       inkscape:connector-curvature="0"
       sodipodi:nodetypes="cscsccc" />
    <path
       style="color:#000000;display:inline;overflow:visible;visibility:visible;fill:#ffffff;fill-opacity:1;fill-rule:nonzero;stroke:none;stroke-width:1px;marker:none;enable-background:accumulate"
       d="m 1142.4257,3108.1619 c -1.2337,-31.62 22.4012,-64.5566 34.7376,-74.6749 12.3366,-10.1185 87.1974,-20.0204 115.5712,-20.0204 28.3738,0 148.4287,5.6137 169.4007,28.3802 20.9719,22.7664 45.2533,39.919 31.6833,77.863 -13.5702,37.9439 -98.6915,56.916 -117.1962,60.7103 -18.5047,3.7944 -71.5515,6.324 -88.8225,5.0593 -17.271,-1.2649 -149.075,-25.4606 -145.3741,-77.3175 z"
       id="path3357"
       inkscape:connector-curvature="0"
       inkscape:transform-center-x="-263.99311"
       inkscape:transform-center-y="-147.27939"
       sodipodi:nodetypes="ccsscccc" />
    <path
       style="fill:#ffffff;fill-rule:evenodd;stroke:none;stroke-width:1.0396986px;stroke-linecap:butt;stroke-linejoin:miter;stroke-opacity:1"
       d="m 1130.7092,2478.7083 c 9.6367,-23.8569 35.5872,-41.9579 63.8304,-54.0414 13.4408,-5.8338 28.8038,-10.1089 44.5246,-8.9844 15.618,0.6719 30.8728,4.6835 46.6634,3.2901 19.201,-0.4602 38.739,-2.4681 57.7195,0.401 16.8729,3.1306 34.2568,4.752 51.6685,4.846 12.2834,-1.9871 23.5235,3.3092 34.4934,6.4769 9.8482,3.4218 19.9072,7.0119 28.1789,12.3048 7.6209,7.4302 16.7459,13.8943 24.4557,21.2583 5.0448,4.0258 4.5601,9.5866 4.3277,14.7331 -0.6552,10.5387 -1.7647,21.2437 -5.883,31.3969 -2.4644,6.4459 -11.5734,8.5792 -18.5727,11.5412 -16.5612,6.2528 -34.1471,10.9944 -49.9527,18.3527 -15.6587,3.7677 -32.2998,2.0054 -48.3586,1.436 -13.4563,-1.1215 -26.9926,-2.6855 -40.5644,-1.3813 -17.2738,0.9544 -34.4951,3.4258 -51.8307,3.1093 -21.7166,-2.1722 -42.5154,-7.5207 -63.5608,-11.8111 -18.8814,-3.7817 -36.0904,-10.8926 -52.6027,-18.4995 -8.8203,-4.3197 -18.1576,-9.3407 -21.2705,-17.3014 -2.5517,-5.4816 -3.153,-11.3511 -3.266,-17.1272 z"
       id="path4365"
       inkscape:connector-curvature="0" />
    <path
       style="color:#000000;display:inline;overflow:visible;visibility:visible;fill:#ffffff;fill-opacity:1;fill-rule:nonzero;stroke:none;stroke-width:1.03751552px;marker:none;enable-background:accumulate"
       d="m 2420.8106,2351.9621 c -233.2895,5.7532 -437.8912,-1.8911 -571.4988,-3.1879 1.0801,29.7933 -27.6392,22.6843 -54.8282,7.8398 21.646,59.3131 -14.2506,63.9403 -68.6275,35.6985 54.8841,59.1639 -0.1766,50.6217 -67.713,12.8616 65.1224,58.9468 115.7824,114.0048 -12.001,78.2802 75.7189,39.0312 109.541,57.8139 40.18,77.5359 67.4952,22.8433 54.9699,51.3137 -12.4304,55.3834 120.8989,35.3815 35.6234,52.1443 -13.7417,63.8363 136.3874,19.3254 46.3825,44.6538 -27.4906,92.5772 85.4381,-14.7268 167.2542,-32.8014 80.7136,30.802 155.0203,-37.0634 108.6735,-7.0377 22.8504,54.5009 49.0148,-18.5662 177.4958,-48.3499 139.6959,0.2174 62.5635,-30.7031 36.5332,11.1616 31.9028,35.7582 8.1906,-8.0698 34.9785,-56.3582 43.7339,-23.6551 15.9604,-23.6035 29.425,-19.0106 27.7227,14.3862 13.7662,-19.4049 46.1993,-40.0488 34.4847,0.7699 20.3923,-40.843 25.3981,-7.4654 15.6377,25.2092 50.9816,-63.4947 58.3508,-66.6271 63.0158,4.3628 21.2792,-39.9712 46.767,-80.7689 88.3603,-12.5423 0.054,-22.6808 7.3016,-61.1184 75.2531,8.5909 -27.3589,-71.7349 39.6655,-57.8079 68.0493,11.1294 -34.6403,-87.865 10.0601,-128.4651 66.3286,-36.6012 5.5324,-120.6143 31.8995,-432.8098 30.4024,-533.7533 z"
       id="path4024"
       inkscape:connector-curvature="0"
       sodipodi:nodetypes="cccccccccccccccccccccccc" />
    <path
       style="fill:#ffffff;fill-rule:evenodd;stroke:none;stroke-width:0.99999994px;stroke-linecap:butt;stroke-linejoin:miter;stroke-opacity:1"
       d="m 2320.0189,2966.9466 -102.8737,31.1414 30.781,-65.8394 -54.3109,13.511 73.467,-174.0894 -83.4186,10.4305 -22.2012,199.1888 46.5569,-15.7553 -28.3923,68.2411 z"
       id="path5002"
       inkscape:connector-curvature="0"
       sodipodi:nodetypes="cccccccccc" />
    <text
       xml:space="preserve"
       style="font-style:normal;font-variant:normal;font-weight:normal;font-stretch:normal;line-height:0%;font-family:Lavi;-inkscape-font-specification:Lavi;letter-spacing:0px;word-spacing:0px;fill:#ffffff;fill-opacity:1;stroke:#000000;stroke-width:0.57625628;stroke-miterlimit:4;stroke-dasharray:none;stroke-opacity:1;filter:url(#filter4375-4-1-1-1-9)"
       x="787.65729"
       y="1584.5073"
       id="text4580"
       transform="matrix(0.47590856,-0.23101257,-0.08785973,0.61214035,2051.4196,1281.2253)"><tspan
         sodipodi:role="line"
         id="tspan4582"
         x="787.65729"
         y="1584.5073"
         style="font-size:70px;line-height:1.25;letter-spacing:5.62810278px;fill:#ffffff;stroke-width:0.57625628;stroke-miterlimit:4;stroke-dasharray:none"><tspan
           style="font-size:61.46733856px"
           id="tspan896">PAF</tspan><tspan
           style="font-size:80.40014648px;letter-spacing:5.62810278px;fill:#ffffff;stroke-width:0.57625628;stroke-miterlimit:4;stroke-dasharray:none"
           id="tspan4617">!</tspan></tspan></text>
    <path
       style="fill:#ffffff;fill-rule:evenodd;stroke:none;stroke-width:1.09982824px;stroke-linecap:butt;stroke-linejoin:miter;stroke-opacity:1"
       d="m 580.1166,699.24679 c 65.05269,-14.71022 56.02917,20.21656 49.98932,53.14407 45.72969,-43.59903 66.85236,-29.85149 74.98399,14.17175 40.67385,-62.22579 71.6785,-30.90893 103.82398,-10.62881 1.23789,-30.58118 20.27623,-46.25269 94.21066,-15.94322 -38.93925,-44.20554 -34.668,-71.76224 48.06664,-69.08729 -74.82738,-15.97494 -73.83155,-42.11142 -26.91732,-74.4017 -54.88484,26.89223 -90.1811,30.92349 -78.82932,-19.48617 -55.16547,49.76939 -63.1292,18.77197 -73.06133,-8.85734 -22.93731,57.85359 -54.50793,40.93556 -88.44264,3.54293 0.91449,36.0549 -12.34082,57.18925 -73.06132,28.34351 10.39888,26.18958 40.82019,62.31265 -30.76266,47.82967 38.35108,15.40054 52.08401,31.90752 0,51.3726 z"
       id="path907"
       inkscape:connector-curvature="0"
       sodipodi:nodetypes="ccccccccccccc" />
  </g>
  <g
     inkscape:groupmode="layer"
     id="layer1"
     inkscape:label="txt"
     style="display:inline">
    <path
       style="color:#000000;display:inline;overflow:visible;visibility:visible;fill:#ffffff;fill-opacity:1;fill-rule:nonzero;stroke:none;stroke-width:1px;marker:none;enable-background:accumulate"
       d="m 641.615,3080.033 c -16.45129,42.7371 -57.34368,52.6864 -79.08413,59.0603 -3.49561,-4.6209 -10.29733,-21.207 -10.29733,-21.207 0,0 -51.12826,31.5026 -68.86582,33.4378 -17.73755,1.9353 -19.57138,-14.8728 -19.57138,-14.8728 0,0 80.29422,-31.7712 95.58278,-42.4436 8.90084,13.0355 11.06276,18.6403 15.92522,23.5722 13.47897,-4.7946 53.36319,-19.1261 66.31066,-37.5469 z"
       id="path4456"
       inkscape:connector-curvature="0"
       sodipodi:nodetypes="cccscccc" />
    <text
       xml:space="preserve"
       style="font-style:normal;font-variant:normal;font-weight:normal;font-stretch:normal;line-height:0%;font-family:Lavi;-inkscape-font-specification:Lavi;text-align:center;letter-spacing:0px;word-spacing:0px;text-anchor:middle;fill:#000000;fill-opacity:1;stroke:none"
       x="716.86694"
       y="530.9978"
       id="text4246"><tspan
         sodipodi:role="line"
         style="font-size:45px;line-height:1.25"
         x="716.86694"
         y="530.9978"
         id="tspan837">Ти бажаєш</tspan><tspan
         sodipodi:role="line"
         style="font-size:45px;line-height:1.25"
         x="716.86694"
         y="588.63763"
         id="tspan77">Дерево Єдності?</tspan></text>
    <text
       xml:space="preserve"
       style="font-style:normal;font-variant:normal;font-weight:normal;font-stretch:normal;line-height:0%;font-family:Lavi;-inkscape-font-specification:Lavi;text-align:center;letter-spacing:0px;word-spacing:0px;text-anchor:middle;fill:#000000;fill-opacity:1;stroke:none"
       x="1575.9264"
       y="1893.9833"
       id="text4246-7"><tspan
         sodipodi:role="line"
         style="font-size:45px;line-height:1.25"
         x="1575.9264"
         y="1893.9833"
         id="tspan4410">Ми - відьми</tspan><tspan
         sodipodi:role="line"
         style="font-size:45px;line-height:1.25"
         x="1575.9264"
         y="1951.623"
         id="tspan934">Хаосу. Ми це</tspan><tspan
         sodipodi:role="line"
         style="font-size:45px;line-height:1.25"
         x="1575.9264"
         y="2009.2629"
         id="tspan88">НЕ РОБИМО.</tspan></text>
    <text
       xml:space="preserve"
       style="font-style:normal;font-variant:normal;font-weight:normal;font-stretch:normal;line-height:0%;font-family:Lavi;-inkscape-font-specification:Lavi;text-align:center;letter-spacing:0px;word-spacing:0px;text-anchor:middle;fill:#000000;fill-opacity:1;stroke:none"
       x="275.39804"
       y="2853.25"
       id="text4246-7-6"><tspan
         sodipodi:role="line"
         style="font-size:45px;line-height:1.25"
         x="275.39804"
         y="2853.25"
         id="tspan94">Ти</tspan><tspan
         sodipodi:role="line"
         style="font-size:45px;line-height:1.25"
         x="275.39804"
         y="2909.5"
         id="tspan124">краще</tspan><tspan
         sodipodi:role="line"
         style="font-size:45px;line-height:1.25"
         x="275.39804"
         y="2965.75"
         id="tspan112">зосередься</tspan><tspan
         sodipodi:role="line"
         style="font-size:45px;line-height:1.25"
         x="275.39804"
         y="3022"
         id="tspan114">на своїх</tspan><tspan
         sodipodi:role="line"
         style="font-size:45px;line-height:1.25"
         x="275.39804"
         y="3078.25"
         id="tspan126">заняттях</tspan><tspan
         sodipodi:role="line"
         style="font-size:45px;line-height:1.25"
         x="275.39804"
         y="3135.8899"
         id="tspan1069">по &quot;Заклинанням</tspan><tspan
         sodipodi:role="line"
         style="font-size:45px;line-height:1.25"
         x="275.39804"
         y="3193.5295"
         id="tspan122">Руйнування&quot;!</tspan></text>
    <text
       xml:space="preserve"
       style="font-style:normal;font-variant:normal;font-weight:normal;font-stretch:normal;line-height:0%;font-family:Lavi;-inkscape-font-specification:Lavi;text-align:center;letter-spacing:0px;word-spacing:0px;text-anchor:middle;fill:#000000;fill-opacity:1;stroke:none"
       x="1309.3973"
       y="2493.7979"
       id="text4246-7-6-2"><tspan
         sodipodi:role="line"
         style="font-size:45px;line-height:1.25"
         x="1309.3973"
         y="2493.7979"
         id="tspan1069-6">Руйнування?</tspan></text>
    <text
       xml:space="preserve"
       style="font-style:normal;font-variant:normal;font-weight:normal;font-stretch:normal;line-height:0%;font-family:Lavi;-inkscape-font-specification:Lavi;text-align:center;letter-spacing:0px;word-spacing:0px;text-anchor:middle;fill:#000000;fill-opacity:1;stroke:none"
       x="1313.0408"
       y="3082.3787"
       id="text4246-7-6-2-0"><tspan
         sodipodi:role="line"
         style="font-size:45px;line-height:1.25"
         x="1313.0408"
         y="3082.3787"
         id="tspan4434">В цю</tspan><tspan
         sodipodi:role="line"
         style="font-size:45px;line-height:1.25"
         x="1313.0408"
         y="3140.0186"
         id="tspan130">пору року?</tspan></text>
    <text
       xml:space="preserve"
       style="font-style:normal;font-variant:normal;font-weight:normal;font-stretch:normal;line-height:0%;font-family:Lavi;-inkscape-font-specification:Lavi;text-align:center;letter-spacing:0px;word-spacing:0px;text-anchor:middle;fill:#000000;fill-opacity:1;stroke:none"
       x="1264.27"
       y="3233.5964"
       id="text4246-7-6-2-0-5"><tspan
         sodipodi:role="line"
         style="font-size:45px;line-height:1.25"
         x="1264.27"
         y="3233.5964"
         id="tspan137">Але чому би не</tspan><tspan
         sodipodi:role="line"
         style="font-size:45px;line-height:1.25"
         x="1264.27"
         y="3289.8464"
         id="tspan139">вчити заклинання</tspan><tspan
         sodipodi:role="line"
         style="font-size:45px;line-height:1.25"
         x="1264.27"
         y="3347.4863"
         id="tspan147">творення?</tspan></text>
    <text
       xml:space="preserve"
       style="font-style:normal;font-variant:normal;font-weight:normal;font-stretch:normal;line-height:0%;font-family:Lavi;-inkscape-font-specification:Lavi;text-align:center;letter-spacing:0px;word-spacing:0px;text-anchor:middle;fill:#000000;fill-opacity:1;stroke:none;stroke-width:1.60000002;stroke-miterlimit:4;stroke-dasharray:none"
       x="2081.7083"
       y="2459.3547"
       id="text4246-7-6-2-04"><tspan
         sodipodi:role="line"
         style="font-size:45px;line-height:1.25;stroke:none;stroke-width:1.60000002;stroke-miterlimit:4;stroke-dasharray:none"
         x="2081.7083"
         y="2459.3547"
         id="tspan5000">Наступне засідання</tspan><tspan
         sodipodi:role="line"
         style="font-size:45px;line-height:1.25;stroke:none;stroke-width:1.60000002;stroke-miterlimit:4;stroke-dasharray:none"
         x="2081.7083"
         y="2516.9946"
         id="tspan154">Ради Трьох Лун вже скоро,</tspan><tspan
         sodipodi:role="line"
         style="font-size:45px;line-height:1.25;stroke:none;stroke-width:1.60000002;stroke-miterlimit:4;stroke-dasharray:none"
         x="2081.7083"
         y="2574.6343"
         id="tspan156">як і твої екзамени.</tspan><tspan
         sodipodi:role="line"
         style="font-size:45px;line-height:1.25;stroke:none;stroke-width:1.60000002;stroke-miterlimit:4;stroke-dasharray:none"
         x="2089.6184"
         y="2632.2742"
         id="tspan4986"> Вчи! <tspan
   style="stroke:#000000;stroke-width:1.60000002;stroke-miterlimit:4;stroke-dasharray:none;stroke-opacity:1"
   id="tspan874">Вчи! ВЧИ!!! </tspan></tspan><tspan
         sodipodi:role="line"
         style="font-size:45px;line-height:1.25;stroke:#000000;stroke-width:1.60000002;stroke-miterlimit:4;stroke-dasharray:none;stroke-opacity:1"
         x="2081.7083"
         y="2688.5242"
         id="tspan4454">ТА ПЕРЕСТАНЬ</tspan><tspan
         sodipodi:role="line"
         style="font-size:45px;line-height:1.25;stroke:#000000;stroke-width:1.60000002;stroke-miterlimit:4;stroke-dasharray:none;stroke-opacity:1"
         x="2081.7083"
         y="2744.7742"
         id="tspan4456">ВІДВОЛІКАТИСЯ НА ЦІ</tspan><tspan
         sodipodi:role="line"
         style="font-size:45px;line-height:1.25;stroke:#000000;stroke-width:1.60000002;stroke-miterlimit:4;stroke-dasharray:none;stroke-opacity:1"
         x="2081.7083"
         y="2802.4141"
         id="tspan169">БЕЗГЛУЗДІ ВИТІВКИ!!!</tspan></text>
    <flowRoot
       xml:space="preserve"
       id="flowRoot862"
       style="font-style:normal;font-variant:normal;font-weight:normal;font-stretch:normal;font-size:0.66666669px;line-height:318.00000668%;font-family:Neuropolitical;-inkscape-font-specification:Neuropolitical;text-align:center;letter-spacing:0px;word-spacing:0px;writing-mode:lr-tb;text-anchor:middle;fill:#000000;fill-opacity:1;stroke:none;stroke-width:1px;stroke-linecap:butt;stroke-linejoin:miter;stroke-opacity:1"><flowRegion
         id="flowRegion864"><rect
           id="rect866"
           width="103.5"
           height="5.75"
           x="1181.625"
           y="3275.875" /></flowRegion><flowPara
         id="flowPara868" /></flowRoot>    <text
       xml:space="preserve"
       style="font-style:normal;font-variant:normal;font-weight:normal;font-stretch:normal;font-size:14.71681118px;line-height:0%;font-family:Lavi;-inkscape-font-specification:Lavi;text-align:center;letter-spacing:0px;word-spacing:0px;text-anchor:middle;fill:#000000;fill-opacity:1;stroke:none;stroke-width:1"
       x="856.42236"
       y="684.51727"
       id="text4246-36"
       transform="skewX(-9.9961078)"><tspan
         sodipodi:role="line"
         style="font-size:55.18804169px;line-height:1.25;stroke-width:1"
         x="856.42236"
         y="684.51727"
         id="tspan837-3">Тут?!?</tspan></text>
    <text
       xml:space="preserve"
       style="font-style:normal;font-variant:normal;font-weight:normal;font-stretch:normal;font-size:19.04891968px;line-height:0%;font-family:Lavi;-inkscape-font-specification:Lavi;text-align:center;letter-spacing:0px;word-spacing:0px;text-anchor:middle;fill:#000000;fill-opacity:1;stroke:none;stroke-width:1.99999988;stroke-miterlimit:4;stroke-dasharray:none"
       x="1711.0228"
       y="1822.5054"
       id="text4246-3"
       transform="matrix(1.0148714,0,-0.1559129,0.98534652,0,0)"><tspan
         sodipodi:role="line"
         style="font-size:71.43344879px;line-height:1.25;stroke:#000000;stroke-width:1.99999988;stroke-miterlimit:4;stroke-dasharray:none;stroke-opacity:1"
         x="1711.0228"
         y="1822.5054"
         id="tspan4252-6">НІ!</tspan></text>
  </g>
</svg>
