<?xml version="1.0" encoding="UTF-8" standalone="no"?>
<!-- Created with Inkscape (http://www.inkscape.org/) -->

<svg
   xmlns:dc="http://purl.org/dc/elements/1.1/"
   xmlns:cc="http://creativecommons.org/ns#"
   xmlns:rdf="http://www.w3.org/1999/02/22-rdf-syntax-ns#"
   xmlns:svg="http://www.w3.org/2000/svg"
   xmlns="http://www.w3.org/2000/svg"
   xmlns:xlink="http://www.w3.org/1999/xlink"
   xmlns:sodipodi="http://sodipodi.sourceforge.net/DTD/sodipodi-0.dtd"
   xmlns:inkscape="http://www.inkscape.org/namespaces/inkscape"
   id="svg2"
   version="1.1"
   inkscape:version="0.91 r13725"
   width="2481"
   height="3503"
   sodipodi:docname="E13P05.svg">
  <metadata
     id="metadata8">
    <rdf:RDF>
      <cc:Work
         rdf:about="">
        <dc:format>image/svg+xml</dc:format>
        <dc:type
           rdf:resource="http://purl.org/dc/dcmitype/StillImage" />
        <dc:title />
      </cc:Work>
    </rdf:RDF>
  </metadata>
  <defs
     id="defs6">
    <filter
       style="color-interpolation-filters:sRGB"
       id="filter5561"
       inkscape:label="deevad outline effect">
      <feFlood
         id="feFlood5563"
         flood-opacity="1"
         flood-color="rgb(0,0,0)"
         result="flood" />
      <feComposite
         id="feComposite5565"
         in2="SourceGraphic"
         in="flood"
         operator="in"
         result="composite1" />
      <feMorphology
         id="feMorphology5567"
         operator="dilate"
         radius="4.0999999999999996 6.0999999999999996"
         result="result3" />
      <feComposite
         id="feComposite5569"
         in2="result3"
         in="SourceGraphic"
         operator="over"
         result="composite2" />
    </filter>
    <filter
       style="color-interpolation-filters:sRGB;"
       id="filter5561-2"
       inkscape:label="Rough and Dilate"
       y="-0.2"
       height="1.4"
       inkscape:menu="Distort"
       inkscape:menu-tooltip="Create a turbulent contour around">
      <feFlood
         id="feFlood5563-5"
         flood-opacity="1"
         flood-color="rgb(0,0,0)"
         result="flood" />
      <feComposite
         id="feComposite5565-5"
         in2="SourceGraphic"
         in="flood"
         operator="in"
         result="composite1" />
      <feMorphology
         id="feMorphology5567-9"
         operator="dilate"
         radius="5.5"
         result="result3" />
      <feComposite
         id="feComposite5569-5"
         in2="result3"
         in="SourceGraphic"
         operator="over"
         result="fbSourceGraphic" />
      <feColorMatrix
         result="fbSourceGraphicAlpha"
         in="fbSourceGraphic"
         values="0 0 0 -1 0 0 0 0 -1 0 0 0 0 -1 0 0 0 0 1 0"
         id="feColorMatrix4476" />
      <feMorphology
         id="feMorphology4478"
         radius="7"
         operator="dilate"
         result="result8"
         in="fbSourceGraphic" />
      <feComposite
         id="feComposite4480"
         in2="result8"
         result="result10"
         in="fbSourceGraphic"
         operator="arithmetic"
         k1="0.5"
         k3="0.5" />
      <feTurbulence
         id="feTurbulence4482"
         result="result11"
         type="fractalNoise"
         numOctaves="3"
         baseFrequency="0.07" />
      <feDisplacementMap
         id="feDisplacementMap4484"
         in2="result11"
         result="result12"
         in="result10"
         xChannelSelector="R"
         scale="10" />
      <feComposite
         id="feComposite4486"
         in2="result12"
         operator="arithmetic"
         result="result13"
         in="fbSourceGraphic"
         k1="0.25"
         k2="0.25"
         k3="0.75" />
    </filter>
  </defs>
  <sodipodi:namedview
     pagecolor="#ffffff"
     bordercolor="#666666"
     borderopacity="1"
     objecttolerance="10"
     gridtolerance="10"
     guidetolerance="10"
     inkscape:pageopacity="0"
     inkscape:pageshadow="2"
     inkscape:window-width="1920"
     inkscape:window-height="1017"
     id="namedview4"
     showgrid="false"
     inkscape:zoom="0.56568542"
     inkscape:cx="1388.721"
     inkscape:cy="2806.3349"
     inkscape:window-x="0"
     inkscape:window-y="30"
     inkscape:window-maximized="1"
     inkscape:current-layer="layer1" />
  <g
     inkscape:groupmode="layer"
     id="layer2"
     inkscape:label="artwork"
     sodipodi:insensitive="true">
    <image
       sodipodi:absref="/home/nightlock/peppercarrot/webcomics/ep13_The-Pyjama-Party/lang/kr/../gfx_Pepper-and-Carrot_by-David-Revoy_E13P05.png"
       xlink:href="../gfx_Pepper-and-Carrot_by-David-Revoy_E13P05.png"
       width="2481"
       height="3503"
       id="image10"
       x="0"
       y="0" />
  </g>
  <g
     inkscape:groupmode="layer"
     id="layer3"
     inkscape:label="speechbubbles" />
  <g
     inkscape:groupmode="layer"
     id="layer1"
     inkscape:label="txt">
    <path
       style="fill:#ffffff;stroke:none"
       d="m 527.23914,390.16668 c -45.86351,5.19378 -53.78367,-6.52279 -61.689,-20.62436 -7.90534,-14.10147 -13.49264,-27.80177 -23.79024,-30.3798 -10.2976,-2.57804 -24.30257,0.17113 -34.44405,3.58885 -10.14159,3.41779 -15.93756,-4.70813 -23.23356,-13.13335 -7.2961,-8.42523 -56.22029,-42.79675 -56.22029,-42.79675 0,0 11.52393,43.77572 19.37723,55.87865 7.8533,12.10292 10.66177,16.56816 15.1493,20.52813 4.48763,3.95999 17.00674,12.09547 28.29249,11.26316 11.28573,-0.8322 21.50892,-7.02128 29.90447,-9.54737 8.39548,-2.5262 20.93698,3.06634 29.25832,12.46487 8.32133,9.39852 30.43229,27.8685 48.5013,24.629 18.06901,-3.23951 28.89403,-11.87103 28.89403,-11.87103 z"
       id="path3023"
       inkscape:connector-curvature="0"
       sodipodi:nodetypes="csssscssssssc"
       inkscape:transform-center-x="-20.79395"
       inkscape:transform-center-y="-15.122872" />
    <path
       style="color:#000000;display:inline;overflow:visible;visibility:visible;fill:#ffffff;fill-opacity:1;fill-rule:nonzero;stroke:none;stroke-width:1px;marker:none;enable-background:accumulate"
       d="m 224.63169,278.04045 c 17.32811,-39.17821 111.57725,-35.83367 142.93569,-18.85976 31.3583,16.97374 43.02654,46.20645 44.48506,56.57939 1.45843,10.37286 -2.18779,58.46533 -18.23162,67.8953 -16.04378,9.4299 -61.98734,14.14483 -78.03119,14.14483 -16.04377,0 -67.25911,-6.00209 -80.2191,-19.80283 -12.39749,-13.20185 -28.267,-60.77879 -10.93884,-99.95693 z"
       id="path3330-4"
       inkscape:connector-curvature="0"
       sodipodi:nodetypes="zsssssz" />
    <path
       style="color:#000000;display:inline;overflow:visible;visibility:visible;fill:#ffffff;fill-opacity:1;fill-rule:nonzero;stroke:none;stroke-width:1px;marker:none;enable-background:accumulate"
       d="m 188.05652,201.84587 c 23.87348,-28.85502 152.19081,-19.7285 196.26788,-18.58955 36.25091,0.93672 57.12384,1.14957 61.94766,46.37031 3.33936,31.30459 -3.01415,43.06011 -25.11827,50.00535 -22.10404,6.94518 -85.40193,10.41776 -107.50607,10.41776 -22.10402,0 -92.66503,-4.42058 -110.5204,-14.58492 -17.08042,-9.72325 -38.94437,-44.76399 -15.0708,-73.61895 z"
       id="path3330"
       inkscape:connector-curvature="0"
       sodipodi:nodetypes="zsssssz" />
    <path
       style="color:#000000;display:inline;overflow:visible;visibility:visible;fill:#ffffff;fill-opacity:1;fill-rule:nonzero;stroke:none;stroke-width:1px;marker:none;enable-background:accumulate"
       d="m 270.82772,2992.7884 c 30.36367,15.4739 83.1477,45.1922 92.49918,74.6866 -19.70121,19.3641 -42.48001,59.2251 -38.70517,62.6985 64.76275,14.8062 106.67711,25.0788 109.47373,85.7942 9.33598,-60.7502 -36.05796,-78.7734 -90.55167,-93.3575 11.37977,-21.2747 38.6799,-48.8736 39.76201,-58.2399 -1.17481,-7.4346 -24.92436,-63.7446 -71.79485,-98.3929 -46.87055,-34.6483 -40.68323,26.811 -40.68323,26.811 z"
       id="path5901"
       inkscape:connector-curvature="0"
       sodipodi:nodetypes="ccccccsc" />
    <path
       style="fill:#ffffff;fill-rule:evenodd;stroke:none;stroke-width:1px;stroke-linecap:butt;stroke-linejoin:miter;stroke-opacity:1"
       d="m 219.10541,2964.8329 c 29.52937,29.6789 22.32437,46.09 17.72913,63.4436 52.17455,-23.7249 48.48753,2.4696 56.62313,17.1073 21.72191,-23.1532 44.12396,-28.9364 60.69179,4.2657 15.23628,-20.3185 30.11457,-34.9473 65.81343,-5.1401 4.20298,-10.5601 2.29292,-29.1177 51.86841,-11.4837 -13.99153,-19.615 -4.15534,-33.0502 22.4931,-42.1251 -31.30321,-17.8979 -21.9931,-38.0061 -13.23182,-58.0844 -53.26958,9.1391 -44.13514,-13.2376 -51.72245,-27.1694 -40.62796,35.3143 -49.24944,19.1783 -58.64295,4.2834 -26.65554,33.3552 -36.61297,6.6448 -44.2946,-4.7942 -17.32917,47.7857 -34.65025,13.459 -51.64006,4.7756 -3.37355,11.0185 5.4379,27.8755 -39.25814,19.0939 8.78413,28.4331 -7.8727,27.4465 -16.42897,35.8274 z"
       id="path4572"
       inkscape:connector-curvature="0"
       sodipodi:nodetypes="cccccccccccccc" />
    <path
       style="color:#000000;display:inline;overflow:visible;visibility:visible;fill:#ffffff;fill-opacity:1;fill-rule:nonzero;stroke:none;stroke-width:1px;marker:none;filter:url(#filter4386);enable-background:accumulate"
       d="m 151.33945,2859.9182 c -1.98579,9.6244 -4.67869,30.1456 0.41085,39.4683 8.58721,15.7294 33.11155,16.7006 -20.19493,102.9161 -12.97157,18.9742 10.12227,52.6533 39.58483,60.9185 10.57914,5.4152 23.69522,25.5182 -18.4285,77.7444 -9.27659,16.6357 -4.52757,42.2473 9.9409,51.5692 7.81785,4.471 20.20097,23.5464 9.99086,43.4641 15.32506,-32.5743 -9.8868,-58.3665 -12.42765,-69.0159 -2.2557,-13.374 21.1803,-44.8627 33.23802,-65.95 12.05771,-21.0872 -11.37174,-48.9814 -19.63666,-57.2068 -8.26485,-8.2253 -24.80904,-13.1047 -23.83655,-27.1758 0.97276,-14.072 33.39346,-55.3249 37.63353,-80.8839 4.23979,-25.5581 -18.75587,-42.5117 -13.60197,-65.9575 9.42421,-35.45 3.4216,-75.4323 -22.67273,-9.8907 z"
       id="path3153"
       inkscape:connector-curvature="0"
       sodipodi:nodetypes="csccccccsscscc" />
    <path
       style="fill:#ffffff;fill-rule:evenodd;stroke:none;stroke-width:1px;stroke-linecap:butt;stroke-linejoin:miter;stroke-opacity:1"
       d="m 108.31353,2835.9696 c 38.9876,-17.3045 46.84885,-36.1819 0,-57.8239 26.05783,-4.6732 67.96267,7.0114 45.33994,-47.9112 34.17441,22.269 66.41606,29.6993 92.53048,-9.9127 18.31025,48.4808 47.37032,31.155 76.80029,11.5648 -3.46333,41.521 19.02807,46.7748 52.74239,36.3464 -7.40571,17.9809 -36.50437,38.8667 16.65547,48.7373 -40.38934,11.1907 -50.1776,26.3793 -24.05792,46.2592 -36.05353,-12.9022 -72.2599,-26.0375 -70.32316,18.9992 -21.89888,-24.5412 -43.79777,-39.5116 -65.69665,-2.4781 -9.89073,-46.4095 -78.52919,-29.958 -55.27282,21.0835 -29.11426,-43.0457 -31.87487,-65.4683 -68.71802,-64.8645 z"
       id="path4564"
       inkscape:connector-curvature="0"
       sodipodi:nodetypes="cccccccccccc" />
    <path
       style="color:#000000;display:inline;overflow:visible;visibility:visible;fill:#ffffff;fill-opacity:1;fill-rule:nonzero;stroke:none;stroke-width:1px;marker:none;enable-background:accumulate"
       d="m 648.08017,3276.3435 c -26.72448,-47.6984 -16.61396,-72.6855 -10.70148,-78.8488 5.83542,-6.083 21.9787,-12.5993 27.21202,12.4231 19.84997,-22.2775 28.36763,-14.3308 32.20539,4.9976 -5.24868,-24.5156 43.57214,-36.8092 74.47518,-12.9861 -4.99353,-18.2334 2.32155,-60.6766 24.6934,-69.0492 -30.66675,-9.9612 -29.51873,-48.9988 25.9562,-63.4652 -42.68379,0.4306 -56.98382,-20.0076 -8.8399,-63.9708 -15.73647,-0.4202 -59.48456,38.8774 -46.69642,-64.4889 -41.09154,28.981 -119.01364,42.5029 -139.36888,-19.046 -9.88575,27.6174 -45.99569,63.4156 -72.40097,22.5519 21.98768,81.6047 -32.46615,66.217 -46.88397,61.2701 29.91436,29.1086 35.34262,47.7437 -28.94456,45.6493 67.47485,51.9448 2.35783,57.7863 -7.51378,71.9856 51.91344,16.8098 51.09117,66.8508 28.79458,100.3238 41.16568,-27.3701 71.56316,-42.3525 69.43015,-16.5192 25.53931,-26.5444 35.71601,-11.4617 44.02605,2.6359 7.06172,20.607 6.69067,44.2284 34.55699,66.5369 z"
       id="path3549-3"
       inkscape:connector-curvature="0"
       sodipodi:nodetypes="cscccccccccccccccc" />
    <text
       xml:space="preserve"
       style="color:#000000;font-style:normal;font-variant:normal;font-weight:normal;font-stretch:normal;font-size:160.11950684px;line-height:125%;font-family:'Nanum Pen Script OTF';-inkscape-font-specification:'Nanum Pen Script OTF';letter-spacing:0.02734961px;word-spacing:0px;clip-rule:nonzero;display:inline;overflow:visible;visibility:visible;opacity:1;isolation:auto;mix-blend-mode:normal;color-interpolation:sRGB;color-interpolation-filters:linearRGB;solid-color:#000000;solid-opacity:1;fill:#ffffff;fill-opacity:1;fill-rule:nonzero;stroke:#ffffff;stroke-width:1.11559534;stroke-linecap:butt;stroke-linejoin:miter;stroke-miterlimit:4;stroke-dasharray:none;stroke-dashoffset:0;stroke-opacity:1;marker:none;filter:url(#filter5561);color-rendering:auto;image-rendering:auto;shape-rendering:auto;text-rendering:auto;enable-background:accumulate"
       x="1705.2566"
       y="1742.2045"
       id="text4251"
       sodipodi:linespacing="125%"
       transform="matrix(1.2889427,-0.61901979,0,3.0643394,-599.56086,-2528.1251)"><tspan
         sodipodi:role="line"
         id="tspan4253"
         x="1705.2566"
         y="1742.2045"
         style="font-style:normal;font-variant:normal;font-weight:normal;font-stretch:normal;font-family:'Nanum Pen Script OTF';-inkscape-font-specification:'Nanum Pen Script OTF'"><tspan
           id="tspan4365"
           style="font-style:normal;font-variant:normal;font-weight:normal;font-stretch:normal;font-size:45.57711792px;font-family:'Nanum Pen Script OTF';-inkscape-font-specification:'Nanum Pen Script OTF'"><tspan
             style="font-size:65.69882965px"
             id="tspan3456">쨍</tspan><tspan
             style="font-size:59.12894821px"
             id="tspan3460">그</tspan><tspan
             style="font-size:52.55906677px"
             id="tspan3464">랑</tspan><tspan
             style="font-size:59.12894821px"
             id="tspan3468"> !</tspan></tspan><tspan
           id="tspan4369"
           style="font-style:normal;font-variant:normal;font-weight:normal;font-stretch:normal;font-size:72.51364136px;font-family:'Nanum Pen Script OTF';-inkscape-font-specification:'Nanum Pen Script OTF'"> !</tspan></tspan></text>
    <text
       xml:space="preserve"
       style="font-style:normal;font-variant:normal;font-weight:normal;font-stretch:normal;font-size:80px;line-height:125%;font-family:'Nanum Pen Script OTF';-inkscape-font-specification:'Nanum Pen Script OTF';text-align:center;letter-spacing:0px;word-spacing:0px;text-anchor:middle;fill:#000000;fill-opacity:1;stroke:none"
       x="246.23311"
       y="2830.1675"
       id="text4246-3"
       sodipodi:linespacing="125%"><tspan
         sodipodi:role="line"
         style="font-style:normal;font-variant:normal;font-weight:normal;font-stretch:normal;font-size:80px;font-family:'Nanum Pen Script OTF';-inkscape-font-specification:'Nanum Pen Script OTF';stroke:#000000;stroke-width:1.89999998;stroke-miterlimit:4;stroke-dasharray:none;stroke-opacity:1"
         x="246.23311"
         y="2830.1675"
         id="tspan4152-3">안 돼!</tspan></text>
    <text
       sodipodi:linespacing="125%"
       id="text4530"
       y="3005.1472"
       x="361.54306"
       style="font-style:normal;font-variant:normal;font-weight:normal;font-stretch:normal;font-size:83.63355255px;line-height:125%;font-family:'Nanum Pen Script OTF';-inkscape-font-specification:'Nanum Pen Script OTF';text-align:center;letter-spacing:0px;word-spacing:0px;text-anchor:middle;fill:#000000;fill-opacity:1;stroke:none"
       xml:space="preserve"><tspan
         id="tspan4532"
         y="3005.1472"
         x="361.54306"
         style="font-style:normal;font-variant:normal;font-weight:normal;font-stretch:normal;font-size:83.63355255px;font-family:'Nanum Pen Script OTF';-inkscape-font-specification:'Nanum Pen Script OTF'"
         sodipodi:role="line">또야?</tspan></text>
    <text
       sodipodi:linespacing="100%"
       id="text4530-7"
       y="3020.0693"
       x="641.44104"
       style="font-style:normal;font-variant:normal;font-weight:normal;font-stretch:normal;font-size:16.95050812px;line-height:100%;font-family:'Nanum Pen Script OTF';-inkscape-font-specification:'Nanum Pen Script OTF';text-align:center;letter-spacing:0px;word-spacing:0px;text-anchor:middle;fill:#000000;fill-opacity:1;stroke:#000000;stroke-width:0.66757649;stroke-miterlimit:4;stroke-dasharray:none;stroke-opacity:1"
       xml:space="preserve"
       transform="scale(0.99127735,1.0087994)"><tspan
         id="tspan4532-4"
         y="3020.0693"
         x="641.44104"
         style="font-style:normal;font-variant:normal;font-weight:normal;font-stretch:normal;font-size:63.56439972px;line-height:100%;font-family:'Nanum Pen Script OTF';-inkscape-font-specification:'Nanum Pen Script OTF';stroke:#000000;stroke-width:0.66757649;stroke-miterlimit:4;stroke-dasharray:none;stroke-opacity:1"
         sodipodi:role="line" /><tspan
         y="3083.6338"
         x="641.44104"
         style="font-style:normal;font-variant:normal;font-weight:normal;font-stretch:normal;font-size:63.56439972px;line-height:100%;font-family:'Nanum Pen Script OTF';-inkscape-font-specification:'Nanum Pen Script OTF';stroke:#000000;stroke-width:0.66757649;stroke-miterlimit:4;stroke-dasharray:none;stroke-opacity:1"
         sodipodi:role="line"
         id="tspan4552">그거 뱉어 !</tspan><tspan
         y="3147.1982"
         x="641.44104"
         style="font-style:normal;font-variant:normal;font-weight:normal;font-stretch:normal;font-size:63.56439972px;line-height:100%;font-family:'Nanum Pen Script OTF';-inkscape-font-specification:'Nanum Pen Script OTF';stroke:#000000;stroke-width:0.66757649;stroke-miterlimit:4;stroke-dasharray:none;stroke-opacity:1"
         sodipodi:role="line"
         id="tspan4554">어서 !</tspan></text>
    <flowRoot
       xml:space="preserve"
       id="flowRoot4214"
       style="fill:black;stroke:none;stroke-opacity:1;stroke-width:1px;stroke-linejoin:miter;stroke-linecap:butt;fill-opacity:1;font-family:Lavi;font-style:normal;font-weight:normal;font-size:47.0037508px;line-height:125%;letter-spacing:0px;word-spacing:0px;-inkscape-font-specification:'Lavi, Normal';font-stretch:normal;font-variant:normal;text-anchor:middle;text-align:center;writing-mode:lr"><flowRegion
         id="flowRegion4216"><rect
           id="rect4218"
           width="51.45779"
           height="55.745937"
           x="277.30032"
           y="428.39709" /></flowRegion><flowPara
         id="flowPara4220" /></flowRoot>    <flowRoot
       xml:space="preserve"
       id="flowRoot4222"
       style="fill:black;stroke:none;stroke-opacity:1;stroke-width:1px;stroke-linejoin:miter;stroke-linecap:butt;fill-opacity:1;font-family:Lavi;font-style:normal;font-weight:normal;font-size:47.0037508px;line-height:125%;letter-spacing:0px;word-spacing:0px;-inkscape-font-specification:'Lavi, Normal';font-stretch:normal;font-variant:normal;text-anchor:middle;text-align:center;writing-mode:lr"><flowRegion
         id="flowRegion4224"><rect
           id="rect4226"
           width="75.757301"
           height="67.181"
           x="370.21021"
           y="379.79807" /></flowRegion><flowPara
         id="flowPara4228" /></flowRoot>    <path
       style="fill:#ffffff;fill-opacity:1;stroke:none"
       d="m 305.15714,1185.6404 c 26.42236,5.5003 36.58475,10.6076 31.8422,13.7508 10.83998,1.5714 14.90501,42.4308 4.74255,49.8955 -0.67752,0.7859 -5.41999,3.143 -3.38752,3.5359 2.03248,0.3928 14.22742,-0.7857 16.2599,0.7857 2.03248,1.5716 -18.29237,23.9656 -15.58246,24.7514 2.71008,0.7857 65.03967,-14.1437 73.84701,-10.6077 8.80743,3.5359 4.06504,12.572 6.77503,12.9651 2.70983,0.3928 27.77733,-1.9645 31.16484,-1.5717 3.38735,0.393 9.4847,12.1793 12.87221,12.5721 3.38752,0.3929 18.96998,-5.1074 21.67998,-4.7145 2.70999,0.393 1.35487,10.2148 4.74239,10.6077 3.38751,0.3928 18.29236,-8.2504 20.32493,-7.8575 2.03239,0.3928 9.48495,20.0368 12.87238,21.2153 3.38751,1.1787 25.06732,-21.6082 27.09988,-22.0011 2.0324,-0.3929 14.90477,26.7157 17.61485,27.1086 2.71,0.3929 16.25982,-18.4653 18.29238,-18.0725 2.03247,0.3929 14.90485,11.3937 17.61477,12.1793 2.70999,0.7857 20.32493,-24.3584 23.03484,-24.3584 2.71008,0 25.74484,10.6077 27.77741,12.572 2.03247,1.9644 4.06486,-10.2147 6.77486,-10.2147 2.71,0 33.87475,7.0717 34.55235,6.679 0.67744,-0.393 -4.74255,-7.8577 -2.71008,-7.8577 2.03248,0 23.21491,-6.4453 35.94053,-4.1922 19.12128,-4.3745 73.13627,20.3002 73.13627,20.3002 0,0 -30.48731,-32.216 -27.09996,-34.5732 3.38751,-2.3573 15.58263,0.3928 16.26006,-0.7858 0.67744,-1.1787 -7.45247,-6.2861 -5.42016,-7.8576 2.03265,-1.5715 25.06749,-7.8575 27.09988,-9.8218 2.03256,-1.9645 -10.16238,-7.072 -7.45246,-8.2506 2.71007,-1.1786 42.68241,-8.6433 43.35986,-10.6078 0.67743,-1.9643 -20.32486,-11.3933 -17.61494,-14.1434 2.71,-2.7502 10.16246,-3.9288 9.48494,-5.8932 -0.67751,-1.9644 -13.54998,-4.3217 -12.87246,-6.2862 0.6776,-1.9643 7.45248,-11.7863 9.48495,-13.3578 2.03248,-1.5715 -14.22742,-0.7857 -14.22742,-2.3572 0,-1.5715 59.61967,-43.6095 58.26455,-55.3959 -21.00228,7.4647 -92.81682,20.8225 -115.17406,17.6796 -22.35749,-3.1432 -13.54991,-22.7869 -16.93733,-23.9656 -3.38752,-1.1787 -28.45493,6.6789 -31.84244,3.9287 -3.38744,-2.75 -4.7424,-7.8575 -7.45248,-7.8575 -2.70983,0 -18.29237,11.0005 -21.67972,10.6077 -3.38751,-0.3929 -35.22979,-17.6794 -39.97235,-18.0724 -4.74238,-0.3928 -23.03476,6.679 -27.0998,7.0718 -4.06495,0.3929 -7.45238,-9.429 -10.83989,-8.6433 -3.38752,0.7857 -25.06733,7.8576 -28.45467,7.0718 -3.38753,-0.7857 -6.09752,-3.9287 -8.8076,-3.1429 -2.70983,0.7856 -14.90485,3.9287 -14.90485,3.9287 0,0 -8.80744,-2.3573 -12.87239,-2.3573 -4.06495,0 -31.84218,12.965 -35.2297,13.7507 -3.38752,0.7857 -43.96135,-13.9227 -41.92887,-16.28 2.03255,-2.3573 -19.04576,16.6729 -23.78823,17.8516 -4.7424,1.1785 -48.39105,-43.2365 -49.74594,-42.0578 -1.35503,1.1786 24.00118,48.3437 19.93614,48.7366 -4.06496,0.3929 -13.5499,1.9644 -13.5499,1.9644 l 1.35495,2.3573 c 0,0 -28.45475,-6.286 -31.84227,-8.6432 -3.38743,-2.3573 2.03257,10.2147 4.06504,13.3578 -12.19486,-3.1431 -48.10217,-9.822 -50.812,-11.7864 -2.71009,-1.9645 4.7423,7.0718 8.80726,9.822 -5.41992,-1.1787 -10.16247,-1.5716 -10.16247,-1.5716 l 15.58246,9.4291 -4.74256,0.7858 c 0,0 10.16247,4.3217 10.16247,6.2861 0,1.9643 -26.4222,4.3216 -26.4222,4.3216 0,0 10.8399,3.5359 8.12991,5.5003 -2.71008,1.9643 -9.48503,3.143 -9.48503,3.143 l -1.35487,5.1074 z"
       id="path5888"
       inkscape:connector-curvature="0"
       sodipodi:nodetypes="cccccccccscsccccssscscscccccccscccsscsscsccsccccssccccccccsccccsccccc" />
    <path
       style="color:#000000;display:inline;overflow:visible;visibility:visible;fill:#ffffff;fill-opacity:1;fill-rule:nonzero;stroke:none;stroke-width:1px;marker:none;enable-background:accumulate"
       d="m 173.97089,132.38514 c 19.42003,11.17899 39.22878,22.24748 4.09355,48.94148 33.11849,-6.35793 12.71647,8.38947 4.48819,18.33629 59.24553,-18.74057 20.75727,12.76124 6.02938,32.04858 13.24393,-7.52529 34.4736,-29.07942 26.18391,1.22454 4.19673,-1.31005 9.16538,-5.21616 11.15548,0.89553 5.37832,-4.0726 9.34777,-5.06172 11.62693,-2.35089 5.33108,-7.50896 8.73823,-9.44222 8.60434,-1.11439 5.02823,-6.17202 6.52402,-3.97711 7.7457,-1.13317 8.66454,-13.29779 11.78647,-9.42463 15.11233,-6.18284 4.91161,-7.99049 10.51376,-6.03363 16.69538,4.27359 6.63662,-13.62736 13.56656,-12.63773 20.66078,-3.45584 1.43984,-10.77439 5.57049,-21.50565 10.01349,1.1004 2.88587,-1.74837 4.87511,-15.93147 14.27357,7.93761 1.12688,-25.98851 34.67275,-16.37838 48.64903,-2.88199 -3.9427,-20.27503 3.43702,-29.31705 27.16859,-8.52424 1.36483,-8.0987 8.63475,-11.24009 21.17391,-9.95834 -12.74803,-10.08893 -13.33837,-15.68655 16.45084,-10.06152 -20.70431,-8.48668 -39.77629,-16.93755 -7.41825,-24.2627 -7.51325,-3.35378 -32.30205,3.60616 -4.71603,-33.97395 -19.34795,8.00401 -36.84175,9.81062 -41.77722,-24.36343 -10.49473,8.72919 -22.04403,12.9143 -30.82312,-7.83966 -8.36174,9.45122 -19.85761,6.88657 -25.79644,2.04082 -1.75928,10.51289 -14.22606,26.42219 -30.4525,-3.27205 3.42827,16.75074 0.32848,43.24383 -18.45507,-1.05532 -0.48209,7.62394 6.9506,49.30506 -46.3648,-1.66633 6.30014,33.5526 -11.36443,13.72289 -25.36708,2.05018 6.74644,21.09782 -3.83383,22.48629 -26.75591,9.83606 17.54717,20.27651 -0.68827,14.38517 -12.19898,13.41158 z"
       id="path3549-3-3-0"
       inkscape:connector-curvature="0"
       sodipodi:nodetypes="ccccccccccccccccccccccccccccc" />
    <text
       xml:space="preserve"
       style="font-style:normal;font-variant:normal;font-weight:normal;font-stretch:normal;font-size:60px;line-height:100%;font-family:'Nanum Pen Script OTF';-inkscape-font-specification:'Nanum Pen Script OTF';text-align:center;letter-spacing:0px;word-spacing:0px;text-anchor:middle;fill:#000000;fill-opacity:1;stroke:none;"
       x="315.8573"
       y="190.96432"
       id="text4246-9-0"
       sodipodi:linespacing="100%"><tspan
         sodipodi:role="line"
         style="font-size:60px;-inkscape-font-specification:'Nanum Pen Script OTF';font-family:'Nanum Pen Script OTF';font-weight:normal;font-style:normal;font-stretch:normal;font-variant:normal;line-height:100%;"
         x="315.8573"
         y="190.96432"
         id="tspan4233">...안 돼!</tspan><tspan
         sodipodi:role="line"
         style="font-size:60px;-inkscape-font-specification:'Nanum Pen Script OTF';font-family:'Nanum Pen Script OTF';font-weight:normal;font-style:normal;font-stretch:normal;font-variant:normal;line-height:100%;"
         x="315.8573"
         y="250.49782"
         id="tspan4185">너무 늦었어!</tspan><tspan
         sodipodi:role="line"
         style="font-size:60px;-inkscape-font-specification:'Nanum Pen Script OTF';font-family:'Nanum Pen Script OTF';font-weight:normal;font-style:normal;font-stretch:normal;font-variant:normal;line-height:100%;"
         x="323.76746"
         y="310.03131"
         id="tspan4187">이제... </tspan><tspan
         sodipodi:role="line"
         style="font-size:60px;-inkscape-font-specification:'Nanum Pen Script OTF';font-family:'Nanum Pen Script OTF';font-weight:normal;font-style:normal;font-stretch:normal;font-variant:normal;line-height:100%;"
         x="323.76746"
         y="369.56479"
         id="tspan4206">이젠... </tspan></text>
    <text
       xml:space="preserve"
       style="font-style:normal;font-variant:normal;font-weight:normal;font-stretch:normal;font-size:19.15764046px;line-height:125%;font-family:'Nanum Pen Script OTF';-inkscape-font-specification:'Nanum Pen Script OTF';text-align:center;letter-spacing:0px;word-spacing:0px;text-anchor:middle;fill:#000000;fill-opacity:1;stroke:#000000;stroke-width:2.72444701;stroke-miterlimit:4;stroke-dasharray:none;stroke-opacity:1"
       x="621.46362"
       y="1169.1526"
       id="text4246-9-0-9"
       sodipodi:linespacing="125%"
       transform="scale(0.943293,1.060116)"><tspan
         sodipodi:role="line"
         style="font-style:normal;font-variant:normal;font-weight:normal;font-stretch:normal;font-size:71.84114838px;font-family:'Nanum Pen Script OTF';-inkscape-font-specification:'Nanum Pen Script OTF';stroke:#000000;stroke-width:2.72444701;stroke-miterlimit:4;stroke-dasharray:none;stroke-opacity:1"
         x="631.49609"
         y="1169.1526"
         id="tspan4206-3"><tspan
   style="font-style:normal;font-variant:normal;font-weight:normal;font-stretch:normal;font-size:103.75px;font-family:'Nanum Pen Script OTF';-inkscape-font-specification:'Nanum Pen Script OTF'"
   id="tspan4275">안 돼<tspan
   style="font-size:90px"
   id="tspan3433">애애</tspan><tspan
   id="tspan3441"
   style="font-size:80px">애</tspan></tspan> !!! </tspan></text>
    <path
       style="color:#000000;display:inline;overflow:visible;visibility:visible;fill:#000000;fill-opacity:1;fill-rule:nonzero;stroke:none;stroke-width:1px;marker:none;enable-background:accumulate"
       d="m 886.47708,501.3257 13.13351,-4.89304 3.99125,26.21506 23.53736,-16.52319 c 0,0 10.67212,13.9973 16.04958,15.01285 5.37751,1.01557 -3.45438,12.82731 -3.45438,12.82731 0,0 11.74767,14.2004 13.60902,17.54736 -4.24012,9.68327 -14.1473,21.29171 -14.1473,21.29171 l 44.21915,29.31921 -19.33783,-26.11788 24.46796,-14.84943 -14.89122,-26.77593 6.88739,-3.19273 -16.54588,-21.0974 14.7885,-16.67761 -12.03722,-11.2595 7.4668,-9.07413 9.74126,12.32392 4.90229,-27.53129 17.49748,0.30905 16.4432,-22.35594 1.9134,-21.70278 17.8842,-13.5795 -2.5912,-32.95783 21.4271,-13.49158 -7.3626,-38.8564 2.9415,-37.70088 -13.6918,-5.5812 16.7946,-14.80114 -17.849,-7.86405 40.9201,-24.65614 -23.068,-45.4444 12.9695,-37.54932 -15.129,-8.38341 14.0126,-21.06978 c -10.0174,1.60287 -8.259,-9.5899 -8.259,-9.5899 0,0 -110.30232,-2.31614 -176.4574,0.57235 z"
       id="path4448"
       inkscape:connector-curvature="0"
       sodipodi:nodetypes="ccccsccccccccccccccccccccccccccccccccc" />
    <text
       xml:space="preserve"
       style="font-style:normal;font-variant:normal;font-weight:normal;font-stretch:normal;font-size:16.22398758px;line-height:100%;font-family:'Nanum Pen Script OTF';-inkscape-font-specification:'Nanum Pen Script OTF';text-align:center;letter-spacing:0px;word-spacing:0px;text-anchor:middle;fill:#ffffff;fill-opacity:1;stroke:#ffffff;stroke-width:1.06006455;stroke-miterlimit:4;stroke-dasharray:none;stroke-opacity:1"
       x="1042.7134"
       y="170.99658"
       id="text4246-9-0-9-2"
       sodipodi:linespacing="100%"
       transform="scale(0.92299533,1.0834291)"><tspan
         sodipodi:role="line"
         style="font-style:normal;font-variant:normal;font-weight:normal;font-stretch:normal;font-size:76.21809387px;line-height:100%;font-family:'Nanum Pen Script OTF';-inkscape-font-specification:'Nanum Pen Script OTF';fill:#ffffff;stroke:#ffffff;stroke-width:1.06006455;stroke-miterlimit:4;stroke-dasharray:none;stroke-opacity:1"
         x="1042.7134"
         y="170.99658"
         id="tspan3448">으하</tspan><tspan
         sodipodi:role="line"
         style="font-style:normal;font-variant:normal;font-weight:normal;font-stretch:normal;font-size:76.21809387px;line-height:100%;font-family:'Nanum Pen Script OTF';-inkscape-font-specification:'Nanum Pen Script OTF';fill:#ffffff;stroke:#ffffff;stroke-width:1.06006455;stroke-miterlimit:4;stroke-dasharray:none;stroke-opacity:1"
         x="1042.7134"
         y="247.21468"
         id="tspan3452">하하</tspan><tspan
         sodipodi:role="line"
         style="font-style:normal;font-variant:normal;font-weight:normal;font-stretch:normal;font-size:76.21809387px;line-height:100%;font-family:'Nanum Pen Script OTF';-inkscape-font-specification:'Nanum Pen Script OTF';fill:#ffffff;stroke:#ffffff;stroke-width:1.06006455;stroke-miterlimit:4;stroke-dasharray:none;stroke-opacity:1"
         x="1042.7134"
         y="323.43277"
         id="tspan3454">하하</tspan><tspan
         sodipodi:role="line"
         style="font-style:normal;font-variant:normal;font-weight:normal;font-stretch:normal;font-size:76.21809387px;line-height:100%;font-family:'Nanum Pen Script OTF';-inkscape-font-specification:'Nanum Pen Script OTF';fill:#ffffff;stroke:#ffffff;stroke-width:1.06006455;stroke-miterlimit:4;stroke-dasharray:none;stroke-opacity:1"
         x="1042.7134"
         y="399.65088"
         id="tspan4335">!!!</tspan></text>
    <path
       style="color:#000000;display:inline;overflow:visible;visibility:visible;fill:#ffffff;fill-opacity:1;fill-rule:nonzero;stroke:none;stroke-width:1px;marker:none;enable-background:accumulate"
       d="m 2002.3958,1011.5534 c -8.3332,26.9654 -55.3334,29.2267 -72.6353,23.7454 34.8769,30.1659 33.6611,48.9084 -13.6921,51.8184 79.4119,54.3669 14.5176,46.1398 1.7177,59.9257 62.353,18.7361 34.4556,42.0534 23.3546,65.2655 71.6687,0.7971 42.7793,29.0766 29.4933,51.766 18.7588,-11.9213 66.443,-62.9584 68.1798,-15.8216 41.2197,-42.5186 64.8324,-48.9741 77.7316,5.2875 21.5055,-44.5879 57.6299,-33.7764 66.5869,2.4531 32.8497,-70.0522 74.3261,-11.7372 110.5795,6.39 -10.4929,-24.109 -15.5385,-93.4342 56.3052,-49.5668 -28.8015,-34.0138 13.4515,-39.6927 41.1688,-47.1928 -36.8319,-11.099 -43.6201,-22.5473 24.7688,-34.8674 -52.0398,-1.1918 -100.5674,-3.6334 -39.5132,-45.6487 -19.1545,-1.0168 -70.8774,11.6529 -23.8901,-83.3297 -131.0053,94.9902 -76.9125,-115.87944 -68.8102,-240.02617 -57.0507,198.45137 -74.8187,311.76547 -124.6047,236.36289 -19.3769,48.95128 -62.4692,45.63758 -83.9726,4.99108 -13.5445,27.1669 -33.8059,45.5143 -72.768,8.4476 z"
       id="path3549-3-7"
       inkscape:connector-curvature="0"
       sodipodi:nodetypes="ccccccccccccccccccc" />
    <path
       style="color:#000000;display:inline;overflow:visible;visibility:visible;fill:#ffffff;fill-opacity:1;fill-rule:nonzero;stroke:none;stroke-width:1px;marker:none;enable-background:accumulate"
       d="m 1729.8159,539.26594 c 46.7749,-243.52358 56.0215,-217.3243 61.228,-177.34797 37.2184,-53.36968 76.6554,-35.69967 115.9664,-22.06754 8.529,-16.02938 7.5022,-40.23882 40.2775,-35.51254 -5.9514,-15.46821 3.932,-26.50583 27.9443,-33.59054 -33.5466,-8.47116 -26.3367,-18.9561 33.3916,-31.18493 -46.2714,0.33388 -62.2978,-21.16508 -11.3871,-58.41694 -17.0763,-0.36792 -96.0287,52.19167 -85.2046,-35.46859 -26.6733,28.73942 -56.4362,45.03697 -100.8924,-12.24102 -9.9066,23.41628 -26.4446,39.51444 -63.9007,9.05052 -5.2978,23.11038 -46.8438,26.22072 -62.6233,22.0144 33.2944,24.71024 33.6882,40.65055 -8.1052,44.34592 74.6953,44.1063 16.4722,38.82523 6.186,50.86101 56.7871,14.29526 33.8414,34.78688 25.7955,54.78204 63.6588,-1.17633 47.3712,32.45594 21.324,224.77618 z"
       id="path3549-3-6"
       inkscape:connector-curvature="0"
       sodipodi:nodetypes="ccccccccccccccc" />
    <text
       xml:space="preserve"
       style="font-style:normal;font-variant:normal;font-weight:normal;font-stretch:normal;font-size:22.33371162px;line-height:125%;font-family:'Nanum Pen Script OTF';-inkscape-font-specification:'Nanum Pen Script OTF';text-align:center;letter-spacing:0px;word-spacing:0px;text-anchor:middle;fill:#000000;fill-opacity:1;stroke:#000000;stroke-width:1.87546873;stroke-miterlimit:4;stroke-dasharray:none;stroke-opacity:1"
       x="2062.2349"
       y="252.44473"
       id="text4246-9-0-9-5"
       sodipodi:linespacing="125%"
       transform="scale(0.88838523,1.1256378)"><tspan
         sodipodi:role="line"
         style="font-style:normal;font-variant:normal;font-weight:normal;font-stretch:normal;font-size:83.75141144px;font-family:'Nanum Pen Script OTF';-inkscape-font-specification:'Nanum Pen Script OTF';stroke:#000000;stroke-width:1.87546873;stroke-miterlimit:4;stroke-dasharray:none;stroke-opacity:1"
         x="2062.2349"
         y="252.44473"
         id="tspan4206-3-4"><tspan
           id="tspan4389"
           style="font-style:normal;font-variant:normal;font-weight:normal;font-stretch:normal;font-size:94.72012329px;font-family:'Nanum Pen Script OTF';-inkscape-font-specification:'Nanum Pen Script OTF';stroke-width:1.87546873">으으으!</tspan><tspan
           id="tspan4387"
           style="font-style:normal;font-variant:normal;font-weight:normal;font-stretch:normal;font-size:102.00628662px;font-family:'Nanum Pen Script OTF';-inkscape-font-specification:'Nanum Pen Script OTF';stroke-width:1.87546873">!</tspan><tspan
           id="tspan4385"
           style="font-style:normal;font-variant:normal;font-weight:normal;font-stretch:normal;font-size:109.29244232px;font-family:'Nanum Pen Script OTF';-inkscape-font-specification:'Nanum Pen Script OTF';stroke-width:1.87546873">!</tspan></tspan></text>
    <text
       sodipodi:linespacing="100%"
       id="text4437"
       y="984.38464"
       x="2952.4951"
       style="font-style:normal;font-variant:normal;font-weight:normal;font-stretch:normal;font-size:18.45811653px;line-height:100%;font-family:'Nanum Pen Script OTF';-inkscape-font-specification:'Nanum Pen Script OTF';text-align:center;letter-spacing:0px;word-spacing:0px;text-anchor:middle;fill:#000000;fill-opacity:1;stroke:none;stroke-width:2.08813063;"
       xml:space="preserve"
       transform="matrix(0.88529075,0,-0.32927875,1.1295724,0,0)"><tspan
         y="984.38464"
         x="2952.4951"
         style="font-style:normal;font-variant:normal;font-weight:normal;font-stretch:normal;font-size:69.21794128px;line-height:100%;font-family:'Nanum Pen Script OTF';-inkscape-font-specification:'Nanum Pen Script OTF';text-align:end;text-anchor:end;stroke:#000000;stroke-width:2.08813063;stroke-miterlimit:4;stroke-dasharray:none;stroke-opacity:1;"
         sodipodi:role="line"
         id="tspan3482">이번 일은 <tspan
   style="font-size:96.58650208px;stroke-width:2.08813063;"
   id="tspan3488">반드시</tspan></tspan><tspan
         y="1061.0668"
         x="2952.4951"
         style="font-style:normal;font-variant:normal;font-weight:normal;font-stretch:normal;font-size:69.21794128px;line-height:100%;font-family:'Nanum Pen Script OTF';-inkscape-font-specification:'Nanum Pen Script OTF';text-align:end;text-anchor:end;stroke:#000000;stroke-width:2.08813063;stroke-miterlimit:4;stroke-dasharray:none;stroke-opacity:1;"
         sodipodi:role="line"
         id="tspan3486">갚을 거다 ! ...</tspan></text>
    <text
       transform="matrix(1.3222351,-0.692376,-0.03409412,2.6469342,-333.26444,-1672.0633)"
       sodipodi:linespacing="125%"
       id="text4443"
       y="1742.2045"
       x="1705.2566"
       style="color:#000000;font-style:normal;font-variant:normal;font-weight:normal;font-stretch:normal;font-size:160.11950684px;line-height:125%;font-family:'Nanum Pen Script OTF';-inkscape-font-specification:'Nanum Pen Script OTF';letter-spacing:0.02734961px;word-spacing:0px;clip-rule:nonzero;display:inline;overflow:visible;visibility:visible;opacity:1;isolation:auto;mix-blend-mode:normal;color-interpolation:sRGB;color-interpolation-filters:linearRGB;solid-color:#000000;solid-opacity:1;fill:#ffffff;fill-opacity:1;fill-rule:nonzero;stroke:#ffffff;stroke-width:1.11559534;stroke-linecap:butt;stroke-linejoin:miter;stroke-miterlimit:4;stroke-dasharray:none;stroke-dashoffset:0;stroke-opacity:1;marker:none;filter:url(#filter5561);color-rendering:auto;image-rendering:auto;shape-rendering:auto;text-rendering:auto;enable-background:accumulate"
       xml:space="preserve"><tspan
         style="font-style:normal;font-variant:normal;font-weight:normal;font-stretch:normal;font-family:'Nanum Pen Script OTF';-inkscape-font-specification:'Nanum Pen Script OTF'"
         y="1742.2045"
         x="1705.2566"
         id="tspan4445"
         sodipodi:role="line"><tspan
           style="font-style:normal;font-variant:normal;font-weight:normal;font-stretch:normal;font-size:45.57711792px;font-family:'Nanum Pen Script OTF';-inkscape-font-specification:'Nanum Pen Script OTF'"
           id="tspan4455">채앵 ! </tspan><tspan
           style="font-style:normal;font-variant:normal;font-weight:normal;font-stretch:normal;font-size:72.51364136px;font-family:'Nanum Pen Script OTF';-inkscape-font-specification:'Nanum Pen Script OTF'"
           id="tspan4457">!</tspan></tspan></text>
    <text
       xml:space="preserve"
       style="color:#000000;font-style:normal;font-variant:normal;font-weight:normal;font-stretch:normal;font-size:160.11950684px;line-height:125%;font-family:'Nanum Pen Script OTF';-inkscape-font-specification:'Nanum Pen Script OTF';letter-spacing:0.02734961px;word-spacing:0px;clip-rule:nonzero;display:inline;overflow:visible;visibility:visible;opacity:1;isolation:auto;mix-blend-mode:normal;color-interpolation:sRGB;color-interpolation-filters:linearRGB;solid-color:#000000;solid-opacity:1;fill:#ffffff;fill-opacity:1;fill-rule:nonzero;stroke:#ffffff;stroke-width:0.90363228;stroke-linecap:butt;stroke-linejoin:miter;stroke-miterlimit:4;stroke-dasharray:none;stroke-dashoffset:0;stroke-opacity:1;marker:none;filter:url(#filter5561);color-rendering:auto;image-rendering:auto;shape-rendering:auto;text-rendering:auto;enable-background:accumulate"
       x="1705.2566"
       y="1742.2045"
       id="text4459"
       sodipodi:linespacing="125%"
       transform="matrix(1.3294606,0.27130877,-0.67103186,2.8212185,1025.0264,-2178.0013)"><tspan
         sodipodi:role="line"
         id="tspan4461"
         x="1705.2566"
         y="1742.2045"
         style="font-style:normal;font-variant:normal;font-weight:normal;font-stretch:normal;font-family:'Nanum Pen Script OTF';-inkscape-font-specification:'Nanum Pen Script OTF';stroke-width:0.90363228"><tspan
           id="tspan4465"
           style="font-style:normal;font-variant:normal;font-weight:normal;font-stretch:normal;font-size:45.57711792px;font-family:'Nanum Pen Script OTF';-inkscape-font-specification:'Nanum Pen Script OTF';stroke-width:0.90363228"><tspan
   style="font-style:normal;font-variant:normal;font-weight:normal;font-stretch:normal;font-size:39.41930008px;font-family:'Nanum Pen Script OTF';-inkscape-font-specification:'Nanum Pen Script OTF';stroke-width:0.90363228"
   id="tspan4477">펑 !</tspan> !</tspan><tspan
           id="tspan4467"
           style="font-style:normal;font-variant:normal;font-weight:normal;font-stretch:normal;font-size:72.51364136px;font-family:'Nanum Pen Script OTF';-inkscape-font-specification:'Nanum Pen Script OTF';stroke-width:0.90363228" /></tspan></text>
    <text
       transform="matrix(1.5286845,-0.6036458,-0.14466957,3.2081938,-692.01894,-1205.7778)"
       sodipodi:linespacing="125%"
       id="text4469"
       y="1742.2045"
       x="1705.2566"
       style="color:#000000;font-style:normal;font-variant:normal;font-weight:normal;font-stretch:normal;font-size:160.11950684px;line-height:125%;font-family:'Nanum Pen Script OTF';-inkscape-font-specification:'Nanum Pen Script OTF';letter-spacing:0.02734961px;word-spacing:0px;clip-rule:nonzero;display:inline;overflow:visible;visibility:visible;opacity:1;isolation:auto;mix-blend-mode:normal;color-interpolation:sRGB;color-interpolation-filters:linearRGB;solid-color:#000000;solid-opacity:1;fill:#ffffff;fill-opacity:1;fill-rule:nonzero;stroke:#ffffff;stroke-width:0.48022717;stroke-linecap:butt;stroke-linejoin:miter;stroke-miterlimit:4;stroke-dasharray:none;stroke-dashoffset:0;stroke-opacity:1;marker:none;filter:url(#filter5561);color-rendering:auto;image-rendering:auto;shape-rendering:auto;text-rendering:auto;enable-background:accumulate"
       xml:space="preserve"
       inkscape:transform-center-x="22.911226"
       inkscape:transform-center-y="42.010574"><tspan
         style="font-style:normal;font-variant:normal;font-weight:normal;font-stretch:normal;font-family:'Nanum Pen Script OTF';-inkscape-font-specification:'Nanum Pen Script OTF';stroke-width:0.48022717"
         y="1742.2045"
         x="1705.2566"
         id="tspan4471"
         sodipodi:role="line"><tspan
           style="font-style:normal;font-variant:normal;font-weight:normal;font-stretch:normal;font-size:45.57711792px;font-family:'Nanum Pen Script OTF';-inkscape-font-specification:'Nanum Pen Script OTF';stroke-width:0.48022717"
           id="tspan4473"><tspan
   style="font-style:normal;font-variant:normal;font-weight:normal;font-stretch:normal;font-size:40.07628632px;font-family:'Nanum Pen Script OTF';-inkscape-font-specification:'Nanum Pen Script OTF';stroke-width:0.48022717"
   id="tspan4481">탁 !</tspan>!</tspan><tspan
           style="font-style:normal;font-variant:normal;font-weight:normal;font-stretch:normal;font-size:72.51364136px;font-family:'Nanum Pen Script OTF';-inkscape-font-specification:'Nanum Pen Script OTF';stroke-width:0.48022717"
           id="tspan4475" /></tspan></text>
    <text
       xml:space="preserve"
       style="font-style:normal;font-variant:normal;font-weight:normal;font-stretch:normal;font-size:23.05351448px;line-height:125%;font-family:'Nanum Pen Script OTF';-inkscape-font-specification:'Nanum Pen Script OTF';text-align:center;letter-spacing:0px;word-spacing:0px;text-anchor:middle;fill:#000000;fill-opacity:1;stroke:none;stroke-width:1.89999998;stroke-miterlimit:4;stroke-dasharray:none"
       x="675.35046"
       y="2973.4612"
       id="text4246-3-9"
       sodipodi:linespacing="125%"
       transform="scale(0.97756652,1.0229483)"><tspan
         sodipodi:role="line"
         style="font-style:normal;font-variant:normal;font-weight:normal;font-stretch:normal;font-size:86.45067596px;font-family:'Nanum Pen Script OTF';-inkscape-font-specification:'Nanum Pen Script OTF';stroke:#000000;stroke-width:3.65013957;stroke-miterlimit:4;stroke-dasharray:none;stroke-opacity:1"
         x="675.35046"
         y="2973.4612"
         id="tspan4152-3-4">당근!</tspan></text>
  </g>
</svg>
