<?xml version="1.0" encoding="UTF-8" standalone="no"?>
<!-- Created with Inkscape (http://www.inkscape.org/) -->

<svg
   xmlns:dc="http://purl.org/dc/elements/1.1/"
   xmlns:cc="http://creativecommons.org/ns#"
   xmlns:rdf="http://www.w3.org/1999/02/22-rdf-syntax-ns#"
   xmlns:svg="http://www.w3.org/2000/svg"
   xmlns="http://www.w3.org/2000/svg"
   xmlns:xlink="http://www.w3.org/1999/xlink"
   xmlns:sodipodi="http://sodipodi.sourceforge.net/DTD/sodipodi-0.dtd"
   xmlns:inkscape="http://www.inkscape.org/namespaces/inkscape"
   id="svg2"
   version="1.1"
   inkscape:version="0.92.1 r15371"
   width="2481"
   height="3503"
   sodipodi:docname="E24P03.svg">
  <metadata
     id="metadata8">
    <rdf:RDF>
      <cc:Work
         rdf:about="">
        <dc:format>image/svg+xml</dc:format>
        <dc:type
           rdf:resource="http://purl.org/dc/dcmitype/StillImage" />
        <dc:title />
      </cc:Work>
    </rdf:RDF>
  </metadata>
  <defs
     id="defs6">
    <filter
       style="color-interpolation-filters:sRGB"
       id="filter4375-4-1-1-1-9-5-8"
       inkscape:label="Drop Shadow">
      <feFlood
         id="feFlood4377-7-9-0-8-1-7-3"
         flood-opacity="1"
         flood-color="rgb(200,55,55)"
         result="flood" />
      <feComposite
         id="feComposite4379-3-8-8-2-77-4-1"
         in2="SourceGraphic"
         in="flood"
         operator="in"
         result="composite1" />
      <feMorphology
         id="feMorphology4393-1-0-49-8-9-3-0"
         operator="dilate"
         radius="6.2000000000000002"
         result="result3" />
      <feComposite
         id="feComposite4385-9-5-7-0-8-8-7"
         in2="result3"
         in="SourceGraphic"
         operator="over"
         result="fbSourceGraphic" />
      <feColorMatrix
         result="fbSourceGraphicAlpha"
         in="fbSourceGraphic"
         values="0 0 0 -1 0 0 0 0 -1 0 0 0 0 -1 0 0 0 0 1 0"
         id="feColorMatrix4544" />
      <feTurbulence
         id="feTurbulence4546"
         type="fractalNoise"
         numOctaves="3"
         seed="37"
         baseFrequency="0.129 0.0050000000000000001"
         result="turbulence" />
      <feDisplacementMap
         id="feDisplacementMap4548"
         in2="turbulence"
         in="fbSourceGraphic"
         scale="6.6"
         yChannelSelector="G"
         xChannelSelector="R"
         result="fbSourceGraphic" />
      <feColorMatrix
         result="fbSourceGraphicAlpha"
         in="fbSourceGraphic"
         values="0 0 0 -1 0 0 0 0 -1 0 0 0 0 -1 0 0 0 0 1 0"
         id="feColorMatrix4670" />
      <feFlood
         id="feFlood4672"
         flood-opacity="1"
         flood-color="rgb(80,22,22)"
         result="flood"
         in="fbSourceGraphic" />
      <feComposite
         id="feComposite4674"
         in2="fbSourceGraphic"
         in="flood"
         operator="in"
         result="composite1" />
      <feGaussianBlur
         id="feGaussianBlur4676"
         in="composite1"
         stdDeviation="0"
         result="blur" />
      <feOffset
         id="feOffset4678"
         dx="6"
         dy="6"
         result="offset" />
      <feComposite
         id="feComposite4680"
         in2="offset"
         in="fbSourceGraphic"
         operator="over"
         result="composite2" />
    </filter>
  </defs>
  <sodipodi:namedview
     pagecolor="#ffffff"
     bordercolor="#666666"
     borderopacity="1"
     objecttolerance="10"
     gridtolerance="10"
     guidetolerance="10"
     inkscape:pageopacity="0"
     inkscape:pageshadow="2"
     inkscape:window-width="1858"
     inkscape:window-height="1057"
     id="namedview4"
     showgrid="false"
     inkscape:zoom="0.25178418"
     inkscape:cx="1240.5"
     inkscape:cy="1433.7675"
     inkscape:window-x="54"
     inkscape:window-y="-8"
     inkscape:window-maximized="1"
     inkscape:current-layer="layer1"
     inkscape:snap-global="false" />
  <g
     inkscape:groupmode="layer"
     id="layer2"
     inkscape:label="artwork"
     sodipodi:insensitive="true">
    <image
       sodipodi:absref="D:\Documents\GitHub\webcomics\ep24_The-Unity-Tree\lang\ja\../gfx_Pepper-and-Carrot_by-David-Revoy_E24P03.png"
       xlink:href="../gfx_Pepper-and-Carrot_by-David-Revoy_E24P03.png"
       width="2481"
       height="3503"
       id="image10"
       x="0"
       y="0" />
  </g>
  <g
     inkscape:groupmode="layer"
     id="layer3"
     inkscape:label="speechbubbles">
    <path
       style="color:#000000;display:inline;overflow:visible;visibility:visible;fill:#ffffff;fill-opacity:1;fill-rule:nonzero;stroke:none;stroke-width:1.23743451px;marker:none;enable-background:accumulate"
       d="m 2132.1948,800.61625 c -122.2961,-13.39016 -197.5641,-80.11712 -224.307,-225.31109 -26.7428,-145.19392 -20.4504,-325.94564 34.6082,-405.9506 55.0585,-80.004959 148.0784,-117.415962 231.2459,-121.488807 350.6187,-17.170363 232.8406,137.345587 235.9759,242.705487 4.2583,143.09213 35.3591,411.22022 -70.0387,467.51971 -105.3979,56.29981 -207.4843,42.5253 -207.4843,42.5253 z"
       id="path3970"
       inkscape:connector-curvature="0"
       sodipodi:nodetypes="cccsscc" />
    <path
       style="color:#000000;display:inline;overflow:visible;visibility:visible;fill:#ffffff;fill-opacity:1;fill-rule:nonzero;stroke:none;stroke-width:1px;marker:none;enable-background:accumulate"
       d="m 1838.4804,650.16863 c 29.0313,-3.52058 31.9911,-6.22313 34.1485,-20.64424 2.1573,-14.42103 0.6201,-35.68545 21.8692,-51.57542 28.3458,-11.90057 31.0875,-42.83063 6.131,-54.12633 -12.7784,-5.25354 50.7421,-18.55509 50.7421,-18.55509 0,0 4.0905,37.30315 -2.1395,60.55112 -6.2297,23.2478 -23.1207,21.57732 -39.3736,30.35134 -16.2528,8.77398 -15.7604,38.33518 -27.2062,47.82825 -11.4459,9.4931 -30.2121,7.47217 -44.1715,6.17037 z"
       id="path4538"
       inkscape:connector-curvature="0"
       sodipodi:nodetypes="cccccsscc" />
    <path
       style="color:#000000;display:inline;overflow:visible;visibility:visible;fill:#ffffff;fill-opacity:1;fill-rule:nonzero;stroke:none;stroke-width:1px;marker:none;enable-background:accumulate"
       d="m 217.43049,218.90132 c -25.1607,-12.39782 -33.96692,-23.91004 -31.45075,-30.99455 2.51605,-7.08441 25.16058,-43.39235 52.8372,-47.82016 27.67674,-4.4278 99.38445,-9.74112 115.73893,-5.31331 16.35448,4.42772 62.90162,33.65124 62.90162,48.70567 0,15.05452 -8.80622,44.27795 -33.96691,53.13348 -25.16058,8.8556 -135.86743,14.169 -166.06009,-17.71113 z"
       id="path3349"
       inkscape:connector-curvature="0" />
    <path
       style="fill:#ffffff;fill-rule:evenodd;stroke:none;stroke-width:1.12590349px;stroke-linecap:butt;stroke-linejoin:miter;stroke-opacity:1"
       d="m 224.88203,303.87335 c 11.48694,-39.96398 42.42012,-70.2858 76.08609,-90.5275 16.02145,-9.77244 34.33426,-16.93389 53.07369,-15.05017 18.61654,1.12557 36.80032,7.84557 55.62279,5.51146 22.8876,-0.77096 46.17702,-4.13448 68.80184,0.67169 20.11262,5.24425 40.83438,7.96029 61.58921,8.11778 14.64191,-3.32874 28.04019,5.54338 41.11628,10.84989 11.739,5.73201 23.72937,11.74578 33.58946,20.61227 9.08409,12.44663 19.96109,23.27495 29.15126,35.61079 6.01337,6.7439 5.43558,16.05906 5.15856,24.68005 -0.781,17.65399 -2.10358,35.58658 -7.01252,52.59465 -2.93764,10.79783 -13.79564,14.3713 -22.13875,19.33312 -19.74103,10.47435 -40.70345,18.41737 -59.54382,30.74353 -18.66539,6.31148 -38.50152,3.35934 -57.64375,2.40551 -16.03991,-1.87875 -32.17517,-4.49865 -48.35292,-2.31382 -20.59042,1.59883 -41.1183,5.73869 -61.78239,5.20841 -25.88641,-3.63874 -50.67857,-12.59823 -75.76471,-19.78533 -22.50679,-6.33476 -43.0199,-18.24666 -62.70273,-30.98944 -10.51383,-7.23614 -21.64399,-15.64705 -25.35448,-28.98236 -3.04169,-9.18253 -3.75839,-19.01474 -3.89311,-28.69053 z"
       id="path4365"
       inkscape:connector-curvature="0" />
    <path
       style="fill:#ffffff;stroke:none;stroke-width:1"
       d="m 567.62453,483.66432 c -28.0754,-17.93077 -28.0705,-30.17452 -27.1393,-44.14073 0.931,-13.96633 3.0258,-26.54501 -1.8373,-33.28624 -4.8629,-6.74111 -13.8837,-11.37302 -20.965,-13.69223 -7.0813,-2.31934 -2.5775,-12.7086 -3.484,-22.27018 -0.9066,-9.56171 -20.1711,-55.87859 -20.1711,-55.87859 0,0 -10.2917,37.19787 -10.4833,49.69019 -0.1918,12.4922 -0.313,17.05903 0.7147,22.05378 1.0279,4.99488 5.0156,16.81722 11.7527,21.55276 6.7371,4.73555 14.9313,5.08374 20.6767,7.2236 5.7455,2.13973 6.255,13.14578 7.37,23.89826 1.1149,10.75248 3.3294,18.33365 14.8496,29.61793 9.8749,9.67285 28.7163,15.23145 28.7163,15.23145 z"
       id="path3023-2"
       inkscape:connector-curvature="0"
       sodipodi:nodetypes="csssscssssssc" />
    <text
       xml:space="preserve"
       style="font-style:normal;font-variant:normal;font-weight:normal;font-stretch:normal;font-size:10.6579771px;line-height:0.01%;font-family:Arial;-inkscape-font-specification:Arial;letter-spacing:0px;word-spacing:0px;fill:#b8764f;fill-opacity:1;stroke:none;stroke-width:0.99999994"
       x="287.86542"
       y="803.93427"
       id="text969"
       transform="matrix(0.93043637,-0.40475701,0,1.0747645,0,0)"><tspan
         sodipodi:role="line"
         x="287.86542"
         y="803.93427"
         id="tspan967"
         style="fill:#b8764f;fill-opacity:1;stroke-width:0.99999994"><tspan
           x="287.86542"
           y="803.93427"
           style="font-style:normal;font-variant:normal;font-weight:normal;font-stretch:normal;font-size:42.63190842px;line-height:1.25;font-family:'Rounded M+ 1c';-inkscape-font-specification:'Rounded M+ 1c, Medium';fill:#b8764f;fill-opacity:1;stroke-width:0.99999994"
           id="tspan965">シュゥ</tspan></tspan></text>
    <path
       style="fill:#ffffff;fill-rule:evenodd;stroke:none;stroke-width:1px;stroke-linecap:butt;stroke-linejoin:miter;stroke-opacity:1"
       d="m 328.07776,1418.4869 c 35.95891,-1.047 85.5907,-25.3157 49.56412,-76.765 60.86909,31.7522 105.59671,18.8472 187.9616,-54.6763 3.86919,86.6644 43.27235,73.2787 77.56738,51.9801 -31.17895,33.4833 33.86751,41.6428 67.89027,38.7656 -63.22389,71.8612 -23.03255,86.6956 8.27059,106.4313 -72.5944,-8.0267 -50.91397,24.9164 -56.66108,45.9399 -66.29157,-37.0854 -108.71481,-20.549 -137.77622,26.005 -21.1513,-20.4023 -33.10882,-66.794 -90.25791,14.5646 16.23828,-65.834 -15.08054,-54.9851 -63.09843,-17.2105 5.33399,-22.3978 49.57193,-61.2616 -31.74947,-46.9829 48.38307,-27.053 55.44418,-55.9219 -11.71085,-88.0518 z"
       id="path4584"
       inkscape:connector-curvature="0"
       sodipodi:nodetypes="cccccccccccc" />
    <path
       style="color:#000000;display:inline;overflow:visible;visibility:visible;fill:#ffffff;fill-opacity:1;fill-rule:nonzero;stroke:none;stroke-width:1px;marker:none;enable-background:accumulate"
       d="m 784.69112,1563.4309 c -15.32369,9.3155 -31.18308,19.2161 -49.0338,21.7451 -5.08544,0.6119 -10.37539,0.8907 -15.30657,-0.2206 -4.82468,-2.3165 -6.87511,-7.9353 -6.4581,-13.1657 0.0773,-7.5737 3.29008,-15.6298 0.21821,-22.8387 -2.36498,-5.1877 -8.40769,-6.2287 -13.37721,-7.5547 -12.74334,-3.1267 -26.0547,-4.5175 -38.15129,-9.6948 -14.03358,-4.9222 -28.402,-11.1409 -38.02276,-22.8186 -3.72696,-4.6881 -6.95133,-10.1439 -7.30806,-16.378 -1.63891,-15.9206 5.832,-33.4008 19.81258,-42.2774 9.41793,-4.8331 22.47858,-1.3271 26.37753,8.5567 2.13711,5.1832 0.38592,11.1267 -2.6007,15.789 -3.93833,9.5358 -2.20561,20.5728 3.55369,28.5577 4.64248,6.6725 11.38326,11.722 18.93537,14.711 9.08864,6.8378 21.18471,6.0498 32.03207,7.6312 4.94194,0.7971 10.13109,1.9842 14.06297,5.0924 4.50157,5.8179 2.92635,13.8692 0.81757,20.5584 -2.00021,6.9477 -5.09255,14.8123 -1.67373,21.6069 1.72711,5.063 7.98451,3.6941 12.24863,4.2873 14.05267,0.096 28.13826,-4.2265 40.58054,-11.1677 1.13978,-0.7483 2.21634,-1.5813 3.29306,-2.4195 z"
       id="path4496"
       inkscape:connector-curvature="0"
       inkscape:transform-center-x="11.5"
       inkscape:transform-center-y="-37.374999" />
    <text
       xml:space="preserve"
       style="font-style:normal;font-variant:normal;font-weight:normal;font-stretch:normal;font-size:67.57957458px;line-height:0.01%;font-family:Arial;-inkscape-font-specification:Arial;letter-spacing:0.0115431px;word-spacing:0px;display:inline;fill:#edbadd;fill-opacity:1;stroke:#febfe5;stroke-width:3.02600002;stroke-miterlimit:4;stroke-dasharray:none;stroke-opacity:1"
       x="2243.4829"
       y="2071.228"
       id="text1105"
       transform="matrix(0.94049651,-0.4663916,-0.12455175,1.1250333,0,0)"><tspan
         sodipodi:role="line"
         x="2270.8416"
         y="2071.228"
         id="tspan1103"
         style="font-style:normal;font-variant:normal;font-weight:normal;font-stretch:normal;font-family:'Rounded M+ 1c';-inkscape-font-specification:'Rounded M+ 1c, Medium';fill:#edbadd;fill-opacity:1;stroke:#febfe5;stroke-width:3.02600002;stroke-miterlimit:4;stroke-dasharray:none;stroke-opacity:1"><tspan
           x="2270.8416"
           y="2071.228"
           style="font-style:normal;font-variant:normal;font-weight:normal;font-stretch:normal;font-size:55.8052597px;font-family:'Rounded M+ 1c';-inkscape-font-specification:'Rounded M+ 1c, Medium';fill:#edbadd;fill-opacity:1;stroke:#febfe5;stroke-width:3.02600002;stroke-miterlimit:4;stroke-dasharray:none;stroke-opacity:1"
           id="tspan1095">キラララ</tspan></tspan></text>
    <path
       style="color:#000000;display:inline;overflow:visible;visibility:visible;fill:#ffffff;fill-opacity:1;fill-rule:nonzero;stroke:none;stroke-width:1px;marker:none;enable-background:accumulate"
       d="m 810.71424,2460.3796 c -59.31565,-9.1783 -144.00347,-25.0167 -160.80963,-81.234 -16.80611,-56.2177 12.54007,-146.1904 47.14089,-177.1674 34.60071,-30.977 91.608,-39.3758 143.01488,-29.0501 51.40691,10.3255 120.93964,8.2107 136.7571,60.9865 15.81762,52.7755 38.31672,146.0037 -9.84685,191.0068 -54.88523,51.2838 -156.15002,35.7346 -156.25639,35.4582 z"
       id="path3970-1"
       inkscape:connector-curvature="0"
       sodipodi:nodetypes="ccccssc" />
    <path
       style="opacity:1;fill:#ffffff;fill-rule:evenodd;stroke:none;stroke-width:1px;stroke-linecap:butt;stroke-linejoin:miter;stroke-opacity:1"
       d="m 740.99257,2678.9224 c 106.54894,-68.1191 114.4476,-50.1195 105.06678,-170.042 -0.7356,-13.0761 12.98446,-29.7767 11.51326,-50.208 -1.4712,-20.4314 -28.77037,-38.6153 -26.56347,-14.9149 2.2069,23.7004 -12.83757,57.9136 -8.95037,76.6584 34.19943,100.5138 -35.37187,120.0184 -81.0662,158.5065 z"
       id="path4272"
       inkscape:connector-curvature="0"
       sodipodi:nodetypes="ccsscc" />
    <path
       style="fill:#ffffff;fill-opacity:1;stroke:none;stroke-width:0.99999994"
       d="m 1602.174,2375.3557 c 22.8225,-111.5749 104.0712,-192.0092 315.7948,-189.6949 217.4025,2.3765 226.2811,65.298 270.6715,127.653 15.2031,50.7638 73.3772,155.2602 -61.5549,209.6436 -134.9324,54.3833 -449.522,30.7755 -492.4751,-17.9777 -47.0407,-56.3411 -31.1932,-92.0464 -32.4363,-129.624 z"
       id="path3238"
       inkscape:connector-curvature="0"
       sodipodi:nodetypes="cscccc" />
    <path
       style="fill:#ffffff;stroke:none;stroke-width:1"
       d="m 1667.7291,2850.623 c -28.0273,-50.6036 -13.2215,-93.7285 1.8965,-108.2057 15.1178,-14.4771 50.6778,-42.8284 50.9445,-56.9806 0.2668,-14.1522 -15.4826,-50.9134 -21.5889,-63.5846 -7.7887,-16.1627 79.2563,-67.9419 87.5629,-79.9355 8.3067,-11.9938 19.7346,-62.3727 19.7346,-62.3727 0,0 -50.6027,28.0238 -63.2766,41.8377 -12.6739,13.8139 -6.0044,5.2923 -9.6101,12.305 -3.6058,7.0127 -71.1709,62.8269 -66.9634,77.2471 4.2073,14.4202 23.4056,61.9081 28.8814,72.067 5.4761,10.1588 -29.6375,37.3716 -38.8524,50.9878 -9.2149,13.6163 -19.5808,32.142 -19.0015,56.4166 0.5543,23.2298 30.273,60.2179 30.273,60.2179 z"
       id="path3023"
       inkscape:connector-curvature="0"
       sodipodi:nodetypes="csssscssssssc" />
  </g>
  <g
     inkscape:groupmode="layer"
     id="layer1"
     inkscape:label="txt">
    <text
       xml:space="preserve"
       style="font-style:normal;font-variant:normal;font-weight:normal;font-stretch:normal;line-height:0%;font-family:'Rounded M+ 1c';-inkscape-font-specification:'Rounded M+ 1c, Medium';text-align:center;letter-spacing:0px;word-spacing:0px;text-anchor:middle;fill:#000000;fill-opacity:1;stroke:none"
       x="310.53223"
       y="202.83879"
       id="text4246"><tspan
         sodipodi:role="line"
         style="font-size:45px;line-height:1.25"
         x="310.53223"
         y="202.83879"
         id="tspan4252">それか...</tspan></text>
    <text
       xml:space="preserve"
       style="font-style:normal;font-variant:normal;font-weight:normal;font-stretch:normal;line-height:0%;font-family:'Rounded M+ 1c';-inkscape-font-specification:'Rounded M+ 1c, Medium';text-align:center;letter-spacing:0px;word-spacing:0px;text-anchor:middle;fill:#000000;fill-opacity:1;stroke:none"
       x="432.66968"
       y="290.3475"
       id="text4246-3"><tspan
         sodipodi:role="line"
         style="font-size:45px;line-height:1.25"
         x="432.66968"
         y="290.3475"
         id="tspan841">これなら</tspan><tspan
         sodipodi:role="line"
         style="font-size:45px;line-height:1.25"
         x="432.66968"
         y="346.5975"
         id="tspan111">うまくいくかも ...</tspan></text>
    <text
       xml:space="preserve"
       style="font-style:normal;font-variant:normal;font-weight:normal;font-stretch:normal;line-height:0%;font-family:'Rounded M+ 1c';-inkscape-font-specification:'Rounded M+ 1c, Medium';text-align:center;letter-spacing:0px;word-spacing:0px;text-anchor:middle;fill:#000000;fill-opacity:1;stroke:none"
       x="2158.9634"
       y="177.16335"
       id="text4246-3-7"><tspan
         sodipodi:role="line"
         style="font-size:45px;line-height:1.25"
         x="2158.9634"
         y="177.16335"
         id="tspan866">そうそう</tspan><tspan
         sodipodi:role="line"
         style="font-size:45px;line-height:1.25"
         x="2158.9634"
         y="233.41335"
         id="tspan113">「破壊魔法」の章に</tspan><tspan
         sodipodi:role="line"
         style="font-size:45px;line-height:1.25"
         x="2158.9634"
         y="289.66333"
         id="tspan115">タイムが書いてる</tspan><tspan
         sodipodi:role="line"
         style="font-size:45px;line-height:1.25"
         x="2158.9634"
         y="345.91333"
         id="tspan117">小空間を作って</tspan><tspan
         sodipodi:role="line"
         style="font-size:45px;line-height:1.25"
         x="2158.9634"
         y="402.16333"
         id="tspan121">そこで試すようにって</tspan><tspan
         sodipodi:role="line"
         style="font-size:45px;line-height:1.25"
         x="2158.9634"
         y="458.41333"
         id="tspan181">書いてある</tspan><tspan
         sodipodi:role="line"
         style="font-size:45px;line-height:1.25"
         x="2158.9634"
         y="474.65836"
         id="tspan179" /><tspan
         sodipodi:role="line"
         style="font-size:45px;line-height:1.25"
         x="2158.9634"
         y="514.66333"
         id="tspan125">あと</tspan><tspan
         sodipodi:role="line"
         style="font-size:45px;line-height:1.25"
         x="2158.9634"
         y="570.91333"
         id="tspan127">「結果はそこから</tspan><tspan
         sodipodi:role="line"
         style="font-size:45px;line-height:1.25"
         x="2158.9634"
         y="627.16333"
         id="tspan129">持ち出さないこと</tspan><tspan
         sodipodi:role="line"
         style="font-size:45px;line-height:1.25"
         x="2158.9634"
         y="683.41333"
         id="tspan887">安全のために」</tspan><tspan
         sodipodi:role="line"
         style="font-size:45px;line-height:1.25"
         x="2158.9634"
         y="739.66333"
         id="tspan185">って</tspan></text>
    <text
       xml:space="preserve"
       style="font-style:normal;font-variant:normal;font-weight:normal;font-stretch:normal;line-height:0%;font-family:'Rounded M+ 1c';-inkscape-font-specification:'Rounded M+ 1c, Medium';text-align:center;letter-spacing:0px;word-spacing:0px;text-anchor:middle;fill:#000000;fill-opacity:1;stroke:none"
       x="532.77472"
       y="1428.6305"
       id="text4246-3-7-6"><tspan
         sodipodi:role="line"
         style="font-size:45px;line-height:1.25"
         x="532.77472"
         y="1428.6305"
         id="tspan4386">仕事に</tspan><tspan
         sodipodi:role="line"
         style="font-size:45px;line-height:1.25"
         x="532.77472"
         y="1484.8805"
         id="tspan105">かかりましょ!</tspan></text>
    <text
       xml:space="preserve"
       style="font-style:normal;font-variant:normal;font-weight:normal;font-stretch:normal;line-height:0%;font-family:'Rounded M+ 1c';-inkscape-font-specification:'Rounded M+ 1c, Medium';text-align:center;letter-spacing:0px;word-spacing:0px;text-anchor:middle;fill:#000000;fill-opacity:1;stroke:none"
       x="825.18201"
       y="2244.4436"
       id="text4246-3-7-6-1"><tspan
         sodipodi:role="line"
         style="font-size:45px;line-height:1.25"
         x="825.18201"
         y="2244.4436"
         id="tspan4390">あら</tspan><tspan
         sodipodi:role="line"
         style="font-size:45px;line-height:1.25"
         x="825.18201"
         y="2300.6936"
         id="tspan76">ペッパーが</tspan><tspan
         sodipodi:role="line"
         style="font-size:45px;line-height:1.25"
         x="825.18201"
         y="2356.9436"
         id="tspan78">小空間を</tspan><tspan
         sodipodi:role="line"
         style="font-size:45px;line-height:1.25"
         x="825.18201"
         y="2413.1936"
         id="tspan80">作ったのね?</tspan></text>
    <text
       xml:space="preserve"
       style="font-style:normal;font-variant:normal;font-weight:normal;font-stretch:normal;line-height:0%;font-family:'Rounded M+ 1c';-inkscape-font-specification:'Rounded M+ 1c, Medium';letter-spacing:0px;word-spacing:0px;fill:#ffffff;fill-opacity:1;stroke:#c83737;stroke-width:0.99236238;stroke-miterlimit:4;stroke-dasharray:none;stroke-opacity:1;filter:url(#filter4375-4-1-1-1-9-5-8)"
       x="787.65729"
       y="1584.5073"
       id="text4580-6-0"
       transform="matrix(0.83434398,-0.14790328,-0.40858731,0.88612324,1142.4723,875.27625)"><tspan
         sodipodi:role="line"
         id="tspan4582-1-1"
         x="787.65729"
         y="1584.5073"
         style="font-size:70px;line-height:1.25;fill:#ffffff;fill-opacity:1;stroke:#c83737;stroke-opacity:1"><tspan
           style="font-size:93.14950562px;fill:#ffffff;fill-opacity:1;stroke:#c83737;stroke-opacity:1"
           id="tspan4315-8">シュワッ!</tspan><tspan
           style="font-size:114.73223114px;fill:#ffffff;fill-opacity:1;stroke:#c83737;stroke-opacity:1"
           id="tspan4313-2">!</tspan></tspan></text>
    <text
       xml:space="preserve"
       style="font-style:normal;font-variant:normal;font-weight:normal;font-stretch:normal;line-height:0%;font-family:'Rounded M+ 1c';-inkscape-font-specification:'Rounded M+ 1c, Medium';text-align:center;letter-spacing:0px;word-spacing:0px;text-anchor:middle;fill:#000000;fill-opacity:1;stroke:none"
       x="1908.6538"
       y="2294.3875"
       id="text4246-3-7-6-1-7"><tspan
         sodipodi:role="line"
         style="font-size:45px;line-height:1.25"
         x="1908.6538"
         y="2294.3875"
         id="tspan1140-1">よろしい!</tspan><tspan
         sodipodi:role="line"
         style="font-size:45px;line-height:1.25"
         x="1908.6538"
         y="2350.6375"
         id="tspan88">「破壊魔法」の章の</tspan><tspan
         sodipodi:role="line"
         style="font-size:45px;line-height:1.25"
         x="1908.6538"
         y="2406.8875"
         id="tspan92">余白に書いた警告に</tspan><tspan
         sodipodi:role="line"
         style="font-size:45px;line-height:1.25"
         x="1908.6538"
         y="2463.1375"
         id="tspan1274">従ったということじゃ.</tspan></text>
  </g>
</svg>
